:10010000211901112F000632CD0C01C90E06C5CDF3
:10011000D0BF1423C10D20F4C9000000000000006E
:10012000000000000000000000000080608000006F
:10013000C0300C0830C0C0300810E00000000000E3
:1001400000000000000000000000000000000000AF
:100150000000000080C0000080601018060100014F
:100160000E0300000000000001000000030C3040FE
:10017000800080E00000000000000000000000009F
:10018000000000C0300E014F66F1E0F058584020EA
:1001900080E0F880F0C0E0F0D868A9C3428286848D
:1001A0000C1879F6E1C18638C0000000000000009C
:1001B000804020180601000000000F3F7FFEF8F885
:1001C000F0FEFFFFFFFFFFFFFFFFFFFFFFFFFFFF4F
:1001D0007E7E7D7D787D3F1F0F0000030C708000C8
:1001E0000000FF00000000000000F80808F000FC1C
:1001F0002E6FD7077F8000F800F0504C4EFF07F7B6
:100200000F4E4CD400F0504848F8000000000000A9
:100210000F30C07847404040404444444545454441
:100220004445444445444445454544454444444587
:10023000444445454545444544444445444444407C
:05024000404040407F3A
:00000001FF
