:10010000AF320D79213862115A62012200EDB0112F
:10011000566321C8280E40EDB011512D21C8280E7C
:1001200078EDB0AF32A46321000039224706CD63D9
:100130001BCD511A3E05119A29217B36010800ED8D
:10014000B021880019E5D13D20EF115E2C0E24214D
:100150008336EDB0CD511A3E07CD21170605CD1CD3
:100160001A061011040021C92DCDF1BF0605110A90
:100170000221D92DCDF1BF0607110A0321DE2DCDB5
:10018000F1BF21990122F000110802ED53F20001A4
:100190000302ED43F400CD8118CDFDBCF5CD8E18E2
:1001A000F1F5CD5018CD9B18F1EE282803C36F1B35
:1001B000ED5BF2007AEE02CA8A253E01327B623A9A
:1001C0007D62FE1FD2EA01B7CAEA01217D62115A9F
:1001D00062012100EDB0219E621156630E40EDB028
:1001E00021DE6211512D0E78EDB0CD2C253A7362CF
:1001F0003D211341114000CD322122F00011B040C9
:100200003E08010800EDB013133D20F621B0401167
:10021000B840010800C5D5E5D5E5EDA0D11BE12B1F
:10022000EDA0E1110A0019E5C1E1110A0019EBC5C1
:10023000E1C10D20E021B840110841010A00C5EDDF
:10024000B821FE4011AE40C1EDB821B0403A746211
:100250005F1600193A75623C4710021806110A0031
:100260001910FA3A7B62FE02CAAC02DA9302FE046B
:10027000CACF0223110C410102037E122B1310FA84
:10028000C5010D0009110941C106030D20ECCDB4D3
:1002900016185B2B110C41010300EDB0010D00B7E6
:1002A000ED42110941010300EDB01842010A00B707
:1002B000ED420603110C41EDA01B1B1B1BEDA0130F
:1002C0001313C501080009C110EDCDB416181F01A4
:1002D0000A00B7ED420603110E41EDA81B1BEDA865
:1002E000131313C5010C0009C110EFCDB416215032
:1002F00004E5111001060821E52DCDF1BF1108021A
:10030000060621ED2DCDF1BF110803060721F32DBF
:10031000CDF1BF110804060621FA2DCDF1BFAF3291
:10032000FC003A094121A537CB47C4C60321353823
:10033000CB67C4C6033A0B4121A537CB47C4D003D2
:10034000213538CB67C4D0033A0A4121A537CB47C2
:10035000C4CB03CB4FC42204CB5FC418042135386F
:10036000CB67C4CB03214D38CB6FC42504213B3868
:10037000CB7FC41B043A0C41CB47C4DB03216B3851
:10038000CB67C4DE033A0E41CB47C40E04215F386D
:10039000CB67C411043A0D41CB47C4B104C4F60382
:1003A000CB4FC43604CB5FC42C04CB67C4B9042143
:1003B0005F38C4F903219538CB6FC4390421AD38B7
:1003C000CB7FC42F04C911020218081103021803BD
:1003D000110402060608CDD0BF08C921DB37110180
:1003E00001060308D5C50606CDD0BF010D0009C121
:1003F000D11410F008C921CF37110201060308C536
:1004000006121E02CDD0BF2314C110F308C921CF9C
:1004100037110501060318CB21AB37110201060382
:10042000181E21BD370603110401181421053806D2
:1004300004110101180A211D3806041105011800D4
:1004400008D5C50606CDD0BFC1D1142310F308C905
:100450003A73623D21512D110800CD32213A756267
:10046000110100CD322111DA04D53A7462B7282780
:100470003D28213D281B3D28153D280F3D28093DDD
:100480002803CBC6C9CBCEC9CBD6C9CBDEC9CBE6F8
:10049000C9CBEEC9CBF6C9CBFEC9110202060321B6
:1004A000AE04CDF1BFCD3F24CD3A17C3AB16B2C3D6
:1004B00021083EFF32F00008C908AF32F0003D329B
:1004C000FC0008C93E01CD21173A5B62D602E1CAA1
:1004D0000522DA0522E5325B62C921D34406FF3AE0
:1004E00073623D2808573EFFEDB11520FB7EE6F014
:1004F0000F0F0F0F5F3A7462AB20277EE60F5F3A53
:100500007562AB201D237E3D23E56F260029112E49
:1005100005195E2356EBE9E13EFFEDA1CA04062B67
:1005200018CB23233EFFEDA1CA04062B18BF8C462F
:10053000D046DE4826492C492F4932494B49744957
:100540009B495B49604965496A496F49CE49D94928
:100550000C4A174AAB4A864B8C4BA04BB14BDB4B3A
:10056000EC4B254C2B4C354C494C5D4CD54CDD4C63
:10057000EE4C004D054D0D4D354D524DF34D0F4E8A
:10058000194E3C4E504E134FCE4F5F50A450AB50BF
:10059000C250D150E5503E514A514F515451AE5185
:1005A000B251B651BA51C451015210522C5242525A
:1005B0006D5275529852C352C952DA5207530F53B3
:1005C000235348539854A054BC54D054D554E954A0
:1005D000FD54115525552B55F355CE562158C75965
:1005E000E8593E5B465B9E5BAB5BB85BF25C315DA2
:1005F000605D645D955DC05DB5BAB3C9BAB3B6B6AA
:10060000DEB7DAC03A916317382E3AD800FE542884
:10061000273AF800FE54281C3A7E63B7280E3D3274
:100620007E63201021F8050E0CCD4B19CD791BFEF1
:100630001DDA921BAF32F800CDFDBC11E62D01068C
:100640000021C828EDB0310000325B063A6662B77F
:10065000C4C40421A363AF7723773E00FE17283775
:10066000FE31CA1E13FE0BCA5D13FE05CA9C150897
:100670003E80213E13A67708FE1FCA1F16FE20CA21
:100680003B16FE21CA8B16FE22CA9C16FE51C83E9E
:100690005432F800C3AB1621182E0E18CD3319CDE5
:1006A000D9183AF300FE01CCBB06FE02CA590FFE70
:1006B00003CA9B10C3AB163E541801AF32F70011AA
:1006C000032CED53F200AF32F600110334060B2178
:1006D0006762E5C57E17384F17381617383A17384E
:1006E0003C21C828180EC1E12310E7CD511AC32FB1
:1006F0000721BD360608D5CD8A1AD17B1E0C835F33
:100700003AF6003C32F600FE0420DB1E037A161295
:100710008257AF32F60018CE21B53618D721AD3644
:1007200018D221C53618CD1730F821CD3618C5217D
:10073000D536060B112757CD8A1AAFCDDA17AF1869
:1007400010CDFDBCCD4E24F5CD4318F1F5CDDA1713
:10075000F1F51E00ED4BF20079FE03280B1CFE0F95
:1007600028061CFE1B28011C78FE2C280C1C1C1CB7
:100770001CFE3E28041C1C1C1C216762160019F17B
:10078000FE28CAC6077EF517381017382A17382CE6
:1007900017382EF1CD1719C3410717381521C02E70
:1007A000F1E60F3D110800CD32210E08CD3319C3FB
:1007B000410721F02E18E921902E18E421602E180F
:1007C000DF21302E18DAE5C13AF700FE54C87EF575
:1007D000173819173823173825173827F1FE0FC295
:1007E0004107CD2C253E5432F800AFC917380521FA
:1007F00014081812212008180D213E081808214A53
:10080000081803215608F13DE60F0716005F195E30
:100810002356EBE9620866088808A708B508C508EA
:10082000E3083109800B920B920B160C5C0C5F0CE9
:10083000610CC50CD00CD50C010D060D0B0D680E0E
:10084000A00EA40EA80EAC0EB00EB40EB80EBC0EC8
:10085000C00EC40EC80ECC0EF60EFA0EFE0E020F1F
:10086000060F1E5018021EFFAF023A5B6283380764
:10087000ED5B5C62BB38033A5C62325B6221230F42
:100880000E0CCD2F19C30A0FAF326662C5212F0F90
:100890000E0CCD2F19215C627E2B772323237E2B18
:1008A00077C1AF02C30A0FC5213B0F0E0CCD2F1924
:1008B000215E6218E9AF3266620221470F0E0CCD4D
:1008C0002F19C30A0FAF023E7F327E6321D7080E75
:1008D0000CCD2F19C30A0FCFD3C9B6DE20B2C5B8CD
:1008E000C5AFC03A7362FE0320212A74627DFE0602
:1008F00020197CFE012014C52119090E18CD4B19B1
:100900003E80325863AFC102C30A0F218B2F0E18ED
:1009100000CD4B19CD2C2537C9C0CFCA202020BD12
:10092000AFC4CAB2D8C4B5B8C3DE20B5C4B6DEBC45
:10093000C0217332119A093E06D9010B0411010539
:10094000D9225909ED535F093263092176097123D0
:1009500070D9CDAC0BCD2A25210000CDC8232100B4
:100960000001FF00CDC7193E0ACD211721610B0EF2
:1009700006CD8D19AF32000021670B0E18CD8919F5
:100980002125233A5A62110200CD32215E2356EB13
:10099000227862CD6422CD2C25C9D6B8BFDEDCDA40
:1009A000C9CCB3B2DDA6C4B2C3B8DAC0F9DCC0BCEE
:1009B000CA2020C1B6D7C9B6D0B1BCADD7BD20F9C9
:1009C000C5C6D3C9B6B6DEBAC9B8C6C9B6D0B6DED2
:1009D000D0A6CCB3B2DDBCA4F9BEB6B2C92020C14A
:1009E000AEB3DCA620D0C0DEBCC020F9B9DEDDB2DB
:1009F000DDCABEDDC8DDCFB4C6B1D9202020F9BF25
:100A0000DAA6BCAFC0C4B7A4D4C2A6C0B5BED9C014
:100A1000DEDBB320202020F9B1DABDD6A420B1D886
:100A2000B6DEC4B3F9DCC0BCCA2020BABADBC9B692
:100A3000D0CFC3A8C52020F9B6DAC9BCAEB3C0B2C6
:100A4000CADCC0BCC0C1C6D32020DCB6D7C5B2202A
:100A5000F9B1DABDA4B6C2C3C9D5B3BCACC6B1B393
:100A6000C9C0DEF9C4DEB3D4D720B6DACAB7D0C65F
:100A7000F9C0B2BEC2C520BAC4A6CAC5BCC0B2D7EE
:100A8000BCB220F9C1C5D0C6BAC9BCDDC3DEDDCA5F
:100A90003135B6B2B1D9B6DEDDCADEDAF9CCB3B2E1
:100AA000DDA620C4B2C3B8DAC3B1D8B6DEC4B3F988
:100AB000DCC0BCCA2020B2C9C1C9B6D0B1C5DD20D6
:100AC0002020F9C5C6D3C9B6C9C2D6B2B2BCB6DEFB
:100AD000CAC0D7B2C3F9CCC0C0CBDE20BEDDB4DD06
:100AE000CFB4C9C3DEB7BADEC4B6DEA42020F9B8DD
:100AF000D8B6B4BBDAD6B3C4BCC320B2CFBD2020B5
:100B000020F9BFC9C4B7C920B7B5B8D320A4F9BF6D
:100B1000C9D3C9C620CCB3B2DDBBDAC0D6B3C3DEFD
:100B2000BDF9BAC9BCDDC3DEDDC9C4DEBAB6C6BA1A
:100B3000C9B8C6C9F9DAB7BCA6BCD9BCC0CEDDB647
:100B4000DEB1D9CABDDE20F9BDCDDEC3C3C6BCC08F
:100B5000C4B7A4C5BFDECAC4B9D9C3DEBCAEB32016
:100B6000F9B6D020202020C9CCB3B2DD20B6DEC437
:100B7000B9C3A4B1DABDCA2020C2D6B8C5AFC0F986
:100B800021033311180A3E07D901210A110001C3BC
:100B9000400921BB32119D0A3E0AD90112061105F6
:100BA00006C3400921D80B0E12C31009DDE13A73C8
:100BB000622A7462B820ED7DBA20E97CBB20E5DDB5
:100BC000E5215663060009CBFE3E07CD1E1721EA3C
:100BD0000B01FF02CDC719C9C0CFCAB1DCB2CBB679
:100BE000D8A62020CAAFBCC3B2D9C0CFB6D7202068
:100BF000CAB9DEBCB220CBB6D8B6DE20CCB7C0DED8
:100C0000BCA4F9B5B5B7C52020BDB6DEC0B6DEB10F
:100C1000D7DCDAC021F93AA46317DA71113A6563B7
:100C2000B720173A73623265632A7462555CEB220F
:100C30003B0C214A0C0E12C310091100003A6563E7
:100C4000327362AF326563C32C5FB2CFC9202020FC
:100C5000CADEBCAEA620B7B5B8BCC021C30B09180C
:100C6000FB118D633A7362FE0F20F12A74623E0716
:100C7000BD20E9BC2806AFBE20E21801133E801259
:100C8000AF023E03CD1E1721AD0C0E18CD891921E0
:100C90008D63AFBE281323BE280F2B2B3680CD5D6E
:100CA0002421C34C0E12CD8919CD2C25C9B1D0AD4C
:100CB000DAAFC4CAD2B6DED0BFDEB3C9C5B6C6BDD0
:100CC000B2BACFDAC0210E0D0604CDC719C314097C
:100CD00021600D18F33A9463173081AF023E05CDC1
:100CE0001E1721F20C0E0FCD4B193E80328063C3CC
:100CF0001409B6CDDEC62020D7DDCCDFA620B6B9DC
:100D0000C021AC0D18C2210A0E18BDC35C0CBEB2C6
:100D1000BCDEACB8C5CBCBDEC620C4C2BEDEDD2097
:100D2000F9CAB9DEBCB220CBB6D8B6DE20BCDDC372
:100D3000DEDDC6CCD8BFBFB7DEF9BFC9C5B6B6D7F2
:100D4000CFD3C9B6DE20B1D7DCDAC020F9CAB3DA16
:100D5000DDBAB8CAB7AEB3CCC6C2C2CFDAC020F9CA
:100D6000B5B3BBCFCA20BCDDC3DEDDC6BEDDBCA6CD
:100D70002020B5B8AFC0B6DEF9CFAFC0B8CA20B634
:100D8000DEC0C0C5B2F9CFD3C9C9D1DACAB6BDDE9B
:100D9000A620CCD4BCA42020F9BEB6B2B6DE20CAB0
:100DA000D2C2C9B7B7C6CCDDBCC020F9DCC0BCCA52
:100DB0002020CFD3C9A6D6DDC3DEB2D9D3C9B6DED3
:100DC000B2D9C420BBC4AFC02020F9BAC9B8C6C9C3
:100DD000C0D0C9BCDCBBDEC3DEB1D9C4D3CADDD24E
:100DE000B2BCC0F9D5B3BCACC620BEB2C5D9B9DD62
:100DF000A6C2B6DCBEC3F9B8DBCFB8C920C4B3CA3B
:100E0000DEC2A6B2D7B2BCC020F9B1BBCBB6DEC938
:100E1000CEDEDBB3B3C4BDD9BADBA420F9D6B3D4DC
:100E2000B8C3B7A6B3C2BAC420B6DEC3DEB7C0F932
:100E3000BCB6BCD4C2C9BCDEACB1B8C5C0CFBCB2B4
:100E4000A620B9BDBAC4CAC3DEB7C5B6AFC0F9BA29
:100E5000C9CCB3B2DDCAD3AFC3BEDDC8DDCEC4DEFC
:100E6000A5D1C8DD212020F91E05216362180321C8
:100E700062623A6562835F7E3DE5211D0FCB6FC4E0
:100E80009C0EE60F853001246F7E577B923265629F
:100E900032A2630A5FE17E027B77184621170FC9F1
:100EA0001E0F18C61E2318C21E3218BE1E6218BAA4
:100EB0001E0018B61E0518B71E1918B31E2318AF4A
:100EC0001E3C18AB1E4618A71E0018A31E0A3A5F48
:100ED000628332646232A1630A5F3A6162027B32EA
:100EE000616221530F0E06CD2F19E13AF700FE453E
:100EF000281FE5C30A0F1E2318D41E3C18D01E69F4
:100F000018CC1E8B18C81E0018C4CD2C253E0237E5
:100F1000C9CD2924C31F1C0519233C4600050F23F6
:100F2000326200C0B2D8AEB820B6B2CCB82120BE72
:100F3000DEDD202020B6B2CCB82121CFD8AEB8203B
:100F400020B6B2CCB82120BDC3B0C0BD20B6B2CC53
:100F5000B82120BFB3CBDE2120211B10E5B7F5CD92
:100F6000511AF13803CDF2022A5B622600CDD61960
:100F700021D319113310E5EDA0EDA0EDA013D52A72
:100F80005C622600CD8010D121060019EBD52A5DC8
:100F9000622600CD80102A5E622600CD8010D1E14D
:100FA00021D119E513D52A7662CD8010D11BEDA091
:100FB000EDA01313D52A7862CD8010D11BEDA0EDE2
:100FC000A0E12A5A622600CDD61911591021D31951
:100FD000E5EDA0EDA0EDA0131313D52A6462260061
:100FE000CD8010D11313D52A65622600CD8010E183
:100FF000E1216E103A6662110600CD3221116810AF
:10100000010600EDB006061600212C10C506071ECD
:1010100008CDF1BF2314C110F337C92156100E18A3
:10102000CD3319CDFDBCCD6B1AC3761348503A2091
:101030002020202020202F2020204D503A2020202A
:10104000202020202F202020473A2020202020452B
:101050003A20202020204C563A20202041503A208F
:10106000202044503A202020202020202020BEB2E2
:10107000BCDEAEB3C4DEB8202020D4CADEB221204C
:10108000D9D1D9CDD619D1E1E5EDA0EDA0EDA013D0
:10109000D5D9D5D9C9213B11E51808217613E52109
:1010A0005611E5CD2F2D21682F11DB2C3A7A621FC6
:1010B000384F212A2E11052D010600EDB03A7A6233
:1010C000CB77280B21862F11FF2C010500EDB0AF47
:1010D00032FF003C32F30021DB2C0E18CD3319CD4A
:1010E0008118CDFDBCCD4E24FE21281FFE22281BD9
:1010F000FE28282DF5CD8E18F1CD5018CDBA181830
:10110000E1F5010500EDB013F118A43AFF002FE658
:101110000132FF00E21C1121DB2C18BE21F32C1838
:10112000B93AF3004F3AFF00B728023E0481474F17
:101130003A7A621F10FD79D8F1B7C9FE02DA1512AA
:10114000CAC911FE04DA3112CA5E12FE06DA7B1138
:10115000CA9E12C3A211FE02DAF1112872FE0438EF
:1011600063285CFE06381A2802183721812FCDB279
:1011700012218B2F0E18CD891937C9215E0FE51862
:1011800005E121590FE5217C2FCDB2123E0ACDCDCC
:1011900012D83A5C62325B6221230F0E0CCD8919A2
:1011A00037C921862F3A7362CDB2123D28C33AA4C3
:1011B000631738BD2106130E18CD8919C3A25F210C
:1011C000772F18AA21722F18A5215E0FE51805E1C7
:1011D00021590FE5216D2FCDB2123E04CDCD12D88D
:1011E0003A5C624F3A5B62C63238A7B93801791867
:1011F000A421682FCDB21221FD11C37411A5A5A59C
:10120000BADECEBFBAD7BCDEADB3C6CEBAD8B6DE74
:10121000CFAFC0A5A506030E0ECD8C1B8121682F74
:10122000D1C5CDB21208F1CDCD12DA7F1C08C38032
:101230002121722FCDB2123E0808CD79123A656293
:10124000CD8C1230023EFF32A2633E0132A36321F5
:1012500093120E0BCD8D19CD3617F1C37F1C21775C
:101260002FCDB2123E0F08CD79123A6462CD8C12A6
:1012700030023EFF32A16318D1DDE13AA363B7C269
:10128000711108CDCD12DA7F1CDDE5C9F5CB3F4FDA
:10129000F181C9BDC3B0C0BD20B1AFCCDF21061400
:1012A000CD791BFE083803AF18023EFF21812FC302
:1012B0002012F511F912010500EDB021F4120E1201
:1012C000CD8D193E05CD1E17CD3617F1C9F5CD3A96
:1012D00017F1473A5D62B83F300590325D62C9212F
:1012E000E9120E0BCD891937C94D50B6DE2020C04A
:1012F000D8C5B221B1DABDCA20202020202020206C
:10130000A6C4C5B4C021B6D7C0DEB6DED5B6C620E9
:101310002020BCBDDEDDC3DED5B8A5A5A52011E625
:101320002D213913010500EDB0213E13343E10BECE
:10133000280D3E90BE281E183DC5C6D3C5B2003646
:1013400000CBFE3EA60E3C32241779322C173E010C
:10135000CD1E17182136003EA70E3D18EA21002E9B
:101360000E18CD3319CDD9183AF300FE02384428AF
:101370000DFE03CABA013E5432F800C3AB16012178
:1013800000215A62117D62EDB00E40215663119E1C
:1013900062EDB00E7821512D11DE62EDB011110415
:1013A00021AD130606CDF1BFCDFDBC18C9BEB0CC32
:1013B000DE4F4B3A73623D11080021512DCD322191
:1013C00011D02CED53E800010800EDB03A73623DF6
:1013D000211341114000CD322101080811C828C550
:1013E000E5D52AE800CB16D21114D1E1E5D57E1F50
:1013F000DA10151FDA1C151FDA2B151FDA37151F27
:10140000DA41151FDA4D151FDA5A151FDA6615185D
:101410000ED1D506033E2A12133E15121310F6D133
:10142000131313131313E123C110B479F5E52AE85C
:10143000002322E80021C8280630FE08CA7015FEE5
:1014400007CA8D15FE06CA9215FE05CA9715FE0439
:10145000CA7915FE03CA7E15FE02CA8315FE01CAAB
:10146000881521C828AF7711C928018F00EDB01168
:10147000C828E1F14F06080DC2DF1301022F3A74AC
:1014800062210000110006CD322109E5C1210000D2
:101490001106003A7562CD322109EB21F9140602DA
:1014A000CD8A1ACD511ACD1E03CD09193A73622681
:1014B000006FCDD61921D41911F314010200EDB03B
:1014C00021ED140E0CCD0919CD8D193A7B623D2109
:1014D000FB14110400D5CD3221C1CD8D19210B157E
:1014E0000E05CD89193E5432F800C3EA01BCDDC3B4
:1014F000DEDD202020B6B220200102B7C02020CBA4
:10150000B6DEBCD0C5D020C6BC2020C9CEB3BAB38D
:10151000E1E50606CBC62310FBC3F313D1D5F513C3
:10152000131313133E3F12F1C3F713E1E50606CB85
:10153000EE2310FBC3FB13D1D5F53E3F12F1C3FFE1
:1015400013E1E52323CBCE23CBCEC30314E1E52364
:10155000232323CBD6CBDEC30714E1E52323CBE63D
:1015600023CBE6C30B14E1E523CBD6CBDEC30F14AC
:1015700011002DCD8A1AC3621411182D18F5111EF1
:101580002D18F011242D18EB112A2D18E611062D17
:1015900018E1110C2D18DC11122D18D73A9563B7EC
:1015A000CA76132103160E0CCD2F19CD2F2D3A9587
:1015B00063210F1611DC2CD90604D91FE5D4FF15C1
:1015C000010400EDB01313E123232323D910EB21F1
:1015D000DB2C0E18CD3319CDD9183AF300473A95C4
:1015E000630E000C1F10FCD2761321ED01E579FE8D
:1015F00002DAC50CCAD00CFE03CA010DC3060D21C8
:10160000C828C9C4DEC9CEDDA6D6D0CFBDB63FCC72
:10161000A7D920B3A8D920CAB3DADDD5B3BCAC3E74
:101620005432F800CDB904CD2C16187F3A7B623DB8
:10163000CC0F173DCC0F17327B62C93AF000FEFF8A
:10164000CA9A04CD58243A7B62FE0228223812FE40
:1016500004282A3A75623CFE08CC091732756218D4
:101660004A3A75623DFEFFCC0C17327562183C3A5F
:1016700074623CFE08CC0917327462182E3A746208
:101680003DFEFFCC0C1732746218203E5432F80035
:101690003A7B623DCC0F17327B62180F3E5432F812
:1016A000003A7B623CCD1217327B62CDB904CD513A
:1016B0001AC34A0221094106063A7B62FE02280E3D
:1016C000FE0428163E0232FD0032FE0018163E01CE
:1016D00032FD003E0332FE00180A3E0332FD003E9A
:1016E0000132FE00C53AFD00477EE60FCB3FDC1815
:1016F0001710F95F3AFE00477EE6F0CB27DC1B1798
:1017000010F9B37723C110DCC93E00C93E07C93EBA
:1017100004C9FE05C03E01C9C608C9C610C9CD34FA
:101720002447C53EA7F5D340CD3A17F13DD340CD70
:101730003A17C110EDC93E3218063E2518023EFF89
:1017400001000003000000000000A8C818F5B7F56C
:10175000119617D5010800EDB0E10E18CD4B19AF69
:10176000216762010B00EDB120042BF177C921AE96
:10177000170E2ACD8919CD8919CDB7067EFE0F28FF
:1017800012173008173005CD431818EDAF772196A2
:101790001718C7F137C92020202020202020202022
:1017A0002020A62020202020C3C6B2DAC021BCB64B
:1017B000BC202020D3C1D3C9B6DEB2AFCADFB2216C
:1017C000F9BAB3B6DDBDD9C4DEB3B8DEA6B4D7DD91
:1017D000C3DE20B8C0DEBBB220F9213318E5FE1FFE
:1017E000280DFE202818FE212821FE22282AC93A89
:1017F000F2001E0C83FE28D42A1832F200C93AF2F5
:10180000001E0C93FE28D4271818EF3AF300161286
:1018100092FE2CDC2D18180B3AF300161282FE51A2
:10182000D4301832F300C93E27C93E03C93E50C91F
:101830003E2CC9ED5BF200060621A736CD8A1ACDF3
:10184000511AC9ED5BF200060621C828CD3C1BC920
:10185000FE1F2815FE202809FE212815FE22281922
:10186000C93AF3003D32F300C93AF3003C32F300C9
:10187000C93AF2003D32F200C93AF2003C32F200BD
:10188000C9ED5BF200060621A736CDD0BFC9ED5BDE
:10189000F200060621C828CDD0BFC9ED5BF2007A60
:1018A000FE01CCB418FE04CCB7181E08ED53F200AC
:1018B000CD8118C91603C91602C9ED5BF2007AFE84
:1018C00000CCD318FE05CCD6181E11ED53F200CD76
:1018D0008118C91604C91601C921110122F200CDCF
:1018E0008118CDFDBCCD4E24FE28C8E1FE51280E46
:1018F000E5F5CD8E18F1CD5018CDBA1818E43AA4FC
:101900006317D0F1AF32A463C9D921C82811B82C0C
:10191000011800EDB0D9C921C8280E18CD3319C956
:10192000E5C5CD0919C1E1060011B82CEDB0C9110A
:101930008519D5CD2019060421B82C1601C51E1114
:101940000606CDF1BF2314C110F3C9118519D5CDF9
:101950002019060421B82C1600C5141E1106067E97
:10196000326A19E5C5D5CD62BE3E00B72807FE2014
:101970002803CD4E243E11CD4017D1C1E11C2310C8
:10198000DEC110D5C9CDFDBCC9118519D5AF06067C
:101990003C0D280210FAC5E521BE2C01120011B839
:1019A0002CEDB0E14F11CA2CEDB0E50603CD38198E
:1019B000060121CA2C1603CD5919E1C17E23FEF977
:1019C000C82B0C0D20C7C90E30C5CD8919C110F721
:1019D000C9000000000011D119011027CD101A0113
:1019E000E803CD101A016400CD101A010A00CD10D1
:1019F0001A7D12060511D1191AFE002802180813C3
:101A000010F6060111D5191A0E3081121310F8C9FB
:101A1000AFED4238033C18F9091213C95015C51E21
:101A200000069021C828CDD0BF3E0DCD401715C16E
:101A300010EC1600C93E2A325C1ACD511A3E903283
:101A40005C1AC93E2A32761ACD6B1A3E9032761A4B
:101A5000C906062158291600C51E000690E5CDD0FE
:101A6000BFE10190000914C110EEC9060621282C1F
:101A70001605C51E000690E5CDD0BFE10170FF0937
:101A8000153E12CD4017C110E9C922112DED4313A7
:101A90002DED53152D7B0E00FE0838050CD60818C9
:101AA000F732192DD608ED44321A2D2158297932F2
:101AB0001B2DFE002806119000CD322122172DCDBE
:101AC0002C1B3A192D2A172DED4B132DED5B152DDF
:101AD0005A160019EB21DB2C32F000F5FE00280528
:101AE000CB263D20FB7E4F1AB1122313F110EC3AA6
:101AF0001B2DFE05C8CD2C1B2A172D119000192275
:101B0000172DED4B132DED5B152D5A160019EB3AE1
:101B10001A2DB7281621DB2CF5B72805CB3E3D2022
:101B2000FB7E4F1AB1122313F110EDC9ED4B132DAB
:101B30002A112D11DB2C480600EDB0C93EAF32E86A
:101B40001A32241BCD8A1A3EB132E81A32241BC93C
:101B5000D921582936FF115929015F03EDB0CD5124
:101B60001AD9C921C828115829016003EDB0C9CD7F
:101B700053BEEE51C82AF000E9E5210000545D296A
:101B8000291911475D19227B1B7CE1C9CD791BE620
:101B900003C9AF21A3637723773A646232A1633A22
:101BA000656232A2633A73623D280547AF3C10FD7F
:101BB00047CD8C1B80329663217E20110600CD32EA
:101BC00021119763010600E5EDB0E10E0611B82C76
:101BD000EDB021242011BE2C011200EDB0CD36193C
:101BE000CD4424CDFDBC21EA203A9663110400CDFA
:101BF0003221119D63010400EDB0CDB62337CD5ED7
:101C00000F214E200E18CD3319CDD9183AF300FE0E
:101C100002DA1F1CCA331CFE04DA3B1CCA481C2112
:101C200036200E0CCD8D193AA1632AA063CD4C212C
:101C3000C38021CD951030C2C37F1C3E45CDBC066C
:101C400030B8CD2924C37F1C3AA46317381D3A5AF3
:101C500062B71F47CD8C1B2A966380BD380D3E545A
:101C600032F8003AA46317D8C3EA0121791C0E06A2
:101C7000CD8D19CD3617C37F1CBCAFCADFB220CDC6
:101C80003A17CD1B20219B1C3A9E633D075F16002F
:101C9000195E2356EBE5CD8C1BE1E9BB1CCF1CFC88
:101CA0001C031D0A1D101D171D251D301D3A1D4545
:101CB0001D501D5B1D631D701D7B1D213C200E06EC
:101CC000CD8D193A9F632AA263CD4C21C3B6212141
:101CD000F01C0E0CCD8D193A9F632AA263CD4C21C6
:101CE000F52A9D638530023EFF329D63F1C3B62124
:101CF000C9B7ADB3B9C2BAB3B9DEB721FE0238BBBA
:101D0000C3061EFE0238B4C3151EB728AEC3401E5C
:101D1000FE0238A7C37A1EB728A1FE02DAA51ECAA2
:101D2000CB1EC3BB1CFE02C2EA1EC3BB1CCD8C1B58
:101D3000B7CACB1EC3071FCD8C1BFE02DA321FCAE7
:101D4000CF1CC3CB1EFE02DA681FCD8C1BC3031D44
:101D5000FE02DA2D1DCA681FC31A1FFE02DA8B1F8E
:101D6000C3321FFE02DABB1CFE03CA8B1FC3071F50
:101D7000CD8C1BFE02DA321FC3681F3A926317DA5A
:101D8000BB1D3A9D63FE6F301F3EE6329F63C6194E
:101D900032A06321CD1D0603CDC7193E03CD1E170A
:101DA000CDF9233E80329263CD8C1BB728C2FE0151
:101DB000CA8B1FFE02CACF1CC3BF1F3A9D634F3E92
:101DC0000A81D2C71D3EFF329D63C3A81DD4D9BC72
:101DD000DEACB1C5B2B6212020F9BCB6BCDCC0BCBB
:101DE000CAC0B5BBDAD9DCB9C6CA2020B2B6C5B202
:101DF0002020F9CEDDB7C3DE20B2B8BFDE2121B18D
:101E0000DABD212121F921FB1FCDD01F0E0ACD8C77
:101E10001B81C3B62121FF1FCDD01F3AA263D60775
:101E20003001AF32A263CDF92321341E0E0CCD89CF
:101E300019C3FA1BBDC3B0C0BD20C0DEB3DD212075
:101E4000210320CDD01F3A6262FE243007CD8C1BC7
:101E5000B7CC5D1E0E15CD8C1B81C3B6213E013261
:101E60006662CD1E17216E1E0E0CCD8D19C9C4DE03
:101E7000B8A62020B3B9C021202021991E0E0CCD78
:101E80008D19CDE01F3A63624FFE44D4AE1F79CD69
:101E9000791BE60FC616C3B621CA20CEC9B5A6CA9D
:101EA000B2C0212020210720CDD01F3A6262FE243B
:101EB000300A21BF1E0E0CCD8D193EFFC3B621B1D5
:101EC000DABDCA2020BEB7B6BCC020210B20CDD0C1
:101ED0001F3A6362FE45D2E31ECD791BE61FF63042
:101EE000C3B621CD8C1BC61318F621011F0E06CDDB
:101EF000891921C828CDDD25CD5D24CD3A17C3EA47
:101F000001CAC6B9DEC021210F20CDD01FCD791B5B
:101F1000E65FFE2BDC5D1EC3B621211320CDD01F52
:101F2000219D63CBFECBF621230F0E0CCD8D19C363
:101F3000FA1B215C1F0E0CCD8D193A9F632AA263F8
:101F4000CD4C21F5CD8C1B4704F14FAFC5F5CDF934
:101F500023CD3A17F1C18110F3C3B621C9DADDBF31
:101F6000DEB8BAB3B9DEB721217F1F0E0CCD8D19B3
:101F70003A9F632AA263CD4C214F1781C3B621C972
:101F8000BAB3B9DEB7B8D8C3A8B6D921B31F0E0CFF
:101F9000CDDD1F0E7CCD8C1B814F3A6262FE24D4B6
:101FA000AE1F3A6362FE44D4AE1F79C3B62179D620
:101FB000164FC9C9CAB9DEBCB2CEC9B5212121218B
:101FC0001720CDD01F0E6ECD791BE60F81C3B62131
:101FD00011EF1F010400EDB021E91F0E12CD8D1984
:101FE0003E03CD1E17CD3617C9CA20202020202041
:101FF0002020202020A6C2B6AFC021CEDEB320CE46
:10200000D9C4DEBDC4B0D1CCDEDAB8C3DEB2DDCA1D
:10201000DEB2B5DABDC4B1CCDAB1212197630E06C8
:10202000CD8D19C9B6DE20202020B1D7DCDAC02141
:10203000202020202020B1DABD202020C9BAB3B949
:10204000DEB7C620202020C9C0DED2B0BCDE20BA58
:10205000B3B9DEB720CFCEB3202020B1B2C3D12098
:1020600020C4B3BFB320A6C0B5BCC021B1DABDCA7D
:102070002020C1B6D7C2B7C3BCCFAFC0A5A5BDB9DC
:10208000D9C4DD20B8DEB0D92020C9DBB2C9B9DDA2
:10209000CBC4B8B2B8BBC0DEB2BCDEACC9B0C4D928
:1020A0002020B3B2BBDEC4DEB8DED8CCABDDC4DEEC
:1020B000D7BADEDDD7CCDABCB1DDC4DBD920202035
:1020C000D2C0D9C5B2C4CBDEBCAECCDFCFBCDEDD66
:1020D0002020DAAFC4DE4420D0D7B0C5B2C4BDCB17
:1020E000DFD8AFC4D9BCCCD920200F01170114020E
:1020F00019050F011A011E021C0A23012C0C3203C0
:10210000370B3A05411A4B0150235A066E1A3D020D
:102110006E1E9601A01E1C088CFFBE09000A960ABE
:102120009B82AA0DA564B40BB464500EE1FFFF0FAF
:10213000B47FB7C8193D20FCC9B7C801000016001C
:102140005FB7ED5238030318F9C5E1C9CB3FCB3D6A
:10215000CB3DF5E5CD8C1BE1856FF1953001AFC925
:10216000CD791BFE2878D0F5217A210E06CD8D1968
:10217000F1E1E11730163EFF1812B8D8C3A8B6D95E
:10218000E5F5473A6162FE15CC6021F1E16F26006A
:102190004F3A9D639128543852329D63CDA723CD89
:1021A0003A24CD1524CD1B202142200E0CCD8D19B3
:1021B000CD3E17C37F1C6F26004F3A5B62912845C6
:1021C0003843325B62CDA723CD3A24CDF9233E6E4E
:1021D000CD40172136200E06CD8D192142200E0C40
:1021E000CD8D193EE6CD4017C3FA1BCD3A24CD154F
:1021F0002421C828CDDD25CD1B202166200E06CD4B
:102200008919C32C22CD3A24CDF9233EDCCD4017C9
:102210003EA7D3403EDCCD4017216C200E12CD8965
:10222000193AA46317DA2922C900F1C9215F233AB8
:10223000A46317DC09233A9663110400CD32214EC2
:102240002346235E23562A766219300321FFFF229C
:1022500076622A786209300321FFFF227862CD641A
:1022600022C35E1C3A5A62F53D212523110200CD9E
:102270003221C13E1E90C847C55E235623E52A7809
:1022800062B7ED523861CD3424210D230E0CCD8977
:10229000193A5A623C325A62FE05284EFE0A284A12
:1022A000FE0F2846FE142842FE19283EFE1E283A3C
:1022B0003A5F620E0281325F623A64628132646226
:1022C0003A6062813260623A6562813265623A5C8C
:1022D00062C60830023EFF325C623A5E62C6073276
:1022E0005E62E1C11092C9F1E1C93A7A623717CB57
:1022F0007FC40423327A62CD34242119230E0CCDFD
:10230000891918ACF640E67FC9212E60C9DACDDE06
:10231000D9B6DEB1B6DEAFC021CFCEB3A62020B590
:10232000CEDEB4C021050019003C006E00BE002CBA
:10233000010D02DA02BB03E2044A06C008280F1DA1
:1023400015BA1DB824182EB0368C412C4CE45770A9
:10235000623C737882709481AB68BFCCD8FFFF0376
:102360000005000400080005000B0006000E000830
:102370000023000C004B001C003C00410064005591
:1023800000E60083009F01AA002C01E1043908FF48
:1023900000FC015601AA01C50165011A02F401629F
:1023A00002960062029600CDD61921D319010300CE
:1023B000114320EDB0C93AA46317382D21C5383A2E
:1023C0009663114800CD3221110B093E03E5D50675
:1023D00018F5CD8A1AF1D1EB01080009EBE10118DB
:1023E00000093D20E8CD431AC921D53D1178003AB6
:1023F0009663CD3221CDDD25C9CD5324E5C5060533
:10240000C5CD3A173E44D340CD3A173E40D340C1E4
:1024100010EEC1E1C9E5C50603C521C828CDDD25FB
:10242000CDB623C110F3C1E1C9CD2A2537CD5E0F4A
:10243000CDB623C921A624C3732421C52418342171
:10244000C024182F21B324182A21CC24182521D3E5
:1024500024182021D624181B21D924181621DE2463
:10246000181121EF24180C210A251807211B251803
:102470000208C9087EB728F947237E4F1E0D501564
:1024800028043E80D31815000020FB50AFD3181548
:10249000000000000000000000000020F21D20DE0F
:1024A0000D20D92318CEB902A0019602820178022C
:1024B000690100B904A00496048205780569060044
:1024C000FA02D201005F035C04730400D203960495
:1024D0006E0600A001007F01005A014A0200460377
:1024E0005A0378039603B403D202F001FF010046B9
:1024F000034B03500355035A035F02640169016EE5
:1025000001730178017D01820100F502FD02010CD9
:10251000F502FD02010CF502FD02005A146E118253
:102520000E960DB419D216FF41001804218625E538
:10253000CD631B115829012A0021E036EDB011E8C6
:10254000290E06210A37EDB0110C2A0E062110378C
:10255000EDB011782A3E03012A0021E829EDB021CF
:10256000660019EB3D20F011282C0E2A211637EDBC
:10257000B011B7290E2E214337EDB011872C0E2E46
:10258000217737EDB0C9CD6B1AC9CD0919CD2C25EE
:102590003E03F521D525E5FE02280F301A21E42659
:1025A000CDDD25217C2806031818216C26CDDD25DC
:1025B00021BC270608180B21F425CDDD25215C2739
:1025C0000604C5E50E18CD8919CD511AE111180080
:1025D00019C110EEC9F13DC29225C3EA0111EE29DD
:1025E0003E04011E00EDB0017200EB09EB3D20F24C
:1025F000CD431AC90010282828100080F85CF80084
:102600000010FC28141E000000C8940800102828A0
:1026100010002AFEA26662B66A7FA83D2FF4272D1D
:10262000F53F24F8B8ECFC7FEFFCBCECB4F840C0FC
:10263000A9BFB3DDB37F7FD37F71DD71B159BD75A4
:102640003F11DB153F519FC23F974EF44FDE081EEE
:102650002E58AF484B4F81811F75CAB758A041987B
:1026600000001C638F30A06F685C4C5880F0F0F065
:10267000F8787C707878383CB4B0C0E0C0C0E6F63A
:102680007676777F67270F0F0F0D357DFDFDF0F014
:10269000323606070F1F1F1F1F1F1F7F7E7E7E3FC4
:1026A0003F3F3F3F3F3F06060000000000C070F87C
:1026B000EEAEBAEABAEABEEEBEEABAEABAAEEEF8F0
:1026C00070C000000000A02020B814071506158671
:1026D0001506151635363516958615061506950711
:1026E0001438A02000008080C04042464A5AE2824E
:1026F000040810F814A27D1B79C020D0309080808F
:1027000000000006C72199CD47CC201804E5635886
:102710007071624758983823EE6F2B79D4B72060D8
:1027200000000F020100003F18649F150A0060407E
:102730000A159D611E0C3F000000000001010040D1
:10274000E0504828A86828A8A96E7AF5ADF57A6EF9
:10275000A9A82868A8284850E0400000BABACA20B2
:102760002020B5B3BADEDDC9B8C620202020CAB308
:10277000DADDBAB8BAC9CFC1C920CBC4CBDEC4CA6E
:10278000CFBCDED2C3DED4BBBCB8A420CBC4CBDE6E
:10279000C4B6DEC0B6DEB2C6BBBBB4B1AFC3B2B75F
:1027A000C3B2D920C4BADBB6DE20BAC9CFC1C920B2
:1027B000C1ADB3BDB3C9BCDDC3DEDDC6BCDEACB1EB
:1027C000B8C5CBB6D8B6DE20CCD8BFBFB7DEBFBC4D
:1027D000C3A5A5A5BCDDC3DEDDC9B6B8C3DEB1D9CE
:1027E000B5B0CCDEB6DEB3BCC5DCDAC0BFBCC3CF8F
:1027F000C1C6CFD3C9B6DE20B1D7DCDAD9D6B3C6CD
:10280000C5AFC020BFC9C4B7A420CAB3DADDC92090
:10281000DCB6B7BEDDBCB1DABDC62020B6C0D8B6C6
:10282000B9D9D3C9B6DEB2C0BFC9BAB4CA20BAB327
:10283000B2AFC03ADCC0BCC9C5CABEDDC8DDCFB4CA
:10284000C9D5B3BCAC20C0DEB2C0DBBDB1DABDD6E9
:10285000A420BCDDC3DEDDC6BAB2A4202020BFC9DF
:10286000C4B7A420BAC9BBB2D4B8C9BCDDBFB3B623
:10287000DEB1B7D7B6C6C5D9C0DEDBB33AB1DABD73
:10288000C9C5B6C6A4C2D6B2C0DDB7ADB320BCDDE3
:10289000B6DEDCB7BFBCC3D0BCD7C7C3B7C6B1B305
:1028A000B6B8BADEA620B7D2A4202020BCDDC3DE95
:1028B000DDC6B1BCA6CCD0B2DAC3B2AFC0A5A5A567
:1028C000A5A5A5A500000000000000000000000074
:1028D00000000000000000000000000000000000F8
:1028E00000000000000000000000000000000000E8
:1028F00000000000000000000000000000000000D8
:1029000000000000000000000000000000000000C7
:1029100000000000000000000000000000000000B7
:1029200000000000000000000000000000000000A7
:102930000000000000000000000000000000000097
:102940000000000000000000000000000000000087
:102950000000000000000000000000000000000077
:102960000000000000000000000000000000000067
:102970000000000000000000000000000000000057
:102980000000000000000000000000000000000047
:102990000000000000000000000000000000000037
:1029A0000000000000000000000000000000000027
:1029B0000000000000000000000000000000000017
:1029C0000000000000000000000000000000000007
:1029D00000000000000000000000000000000000F7
:1029E00000000000000000000000000000000000E7
:1029F00000000000000000000000000000000000D7
:102A000000000000000000000000000000000000C6
:102A100000000000000000000000000000000000B6
:102A200000000000000000000000000000000000A6
:102A30000000000000000000000000000000000096
:102A40000000000000000000000000000000000086
:102A50000000000000000000000000000000000076
:102A60000000000000000000000000000000000066
:102A70000000000000000000000000000000000056
:102A80000000000000000000000000000000000046
:102A90000000000000000000000000000000000036
:102AA0000000000000000000000000000000000026
:102AB0000000000000000000000000000000000016
:102AC0000000000000000000000000000000000006
:102AD00000000000000000000000000000000000F6
:102AE00000000000000000000000000000000000E6
:102AF00000000000000000000000000000000000D6
:102B000000000000000000000000000000000000C5
:102B100000000000000000000000000000000000B5
:102B200000000000000000000000000000000000A5
:102B30000000000000000000000000000000000095
:102B40000000000000000000000000000000000085
:102B50000000000000000000000000000000000075
:102B60000000000000000000000000000000000065
:102B70000000000000000000000000000000000055
:102B80000000000000000000000000000000000045
:102B90000000000000000000000000000000000035
:102BA0000000000000000000000000000000000025
:102BB0000000000000000000000000000000000015
:102BC0000000000000000000000000000000000005
:102BD00000000000000000000000000000000000F5
:102BE00000000000000000000000000000000000E5
:102BF00000000000000000000000000000000000D5
:102C000000000000000000000000000000000000C4
:102C100000000000000000000000000000000000B4
:102C200000000000000000000000000000000000A4
:102C30000000000000000000000000000000000094
:102C40000000000000000000000000000000000084
:102C50000000000000000000000000000000000074
:102C60000000000000000000000000000000000064
:102C70000000000000000000000000000000000054
:102C80000000000000000000000000000000000044
:102C90000000000000000000000000000000000034
:102CA0000000000000000000000000000000000024
:102CB0000000000000000000000000000000000014
:102CC0000000000000000000000000000000000004
:102CD00000000000000000000000000000000000F4
:102CE00000000000000000000000000000000000E4
:102CF00000000000000000000000000000000000D4
:102D000000000000000000000000000000000000C3
:102D100000000000000000000000000000000000B3
:102D2000000000000000000000000000000000DDC6
:102D300021472DDD7201DD7104DD700721C82811E6
:102D4000DB2C014200EDB021000011000001000069
:102D5000C9000000000000000000000000000000AA
:102D60000000000000000000000000000000000063
:102D70000000000000000000000000000000000053
:102D80000000000000000000000000000000000043
:102D90000000000000000000000000000000000033
:102DA0000000000000000000000000000000000023
:102DB0000000000000000000000000000000000013
:102DC00000000000000000000020202020CAB3DA2C
:102DD000DD20CEDEB3B9DDB720CABCDED2D9C2C297
:102DE000DEB7B6D72020202020202020204D3AD248
:102DF000C6ADB0493ABCD7CDDED9443AC3DEB0C087
:102E000020CFAFCCDF2020BEB0CCDE2020DBB0C492
:102E1000DE2020D3C4DED92020B1B2C3D12020BD12
:102E2000C3B0C0BD20CFCEB3202020D3C4DED92074
:102E3000C4DEB3C9C2D9B7DEBAB3C3C2C9B9DD20D3
:102E4000CCA7B2B1BFB0C4DECAB8B7DEDDC9B9DD48
:102E5000B4B8BDB6D8CADE2DB2CBDED9BFB0C4DEA1
:102E6000BBCBDEC0C0C32020D3B8BEB2C9C0C32014
:102E7000B1B2BDBCB0D9C4DECAB8B7DEDDC9C0C30B
:102E8000BEB2D2B2C9C0C320B2CBDED9C9C0C32042
:102E9000CCB8202020202020B6DCC9D6DBB22020F0
:102EA000BBDDC0DEB1B0CFB0CAB8B7DEDDD6DBB2B5
:102EB000BEDEB3BDB1B0CFB0B2CBDED9B1B0CFB012
:102EC000B7BDDEB8DEBDD820BAC5B8DEBDD820207B
:102ED000B1C9D6C9B8BDD820C2B7D6C9B8BDD820E7
:102EE000CADEDDC9B3D4B820CFD6B9C9B5BAB320CC
:102EF000B7DDB2DBC9C0CF20C1B6D7C9B5B0CCDE13
:102F0000BABADBC9B5B0CCDECBB6D8C9C0CF2020A9
:102F1000B2C9C1C9B5B0CCDED8C0DDBDC4B0DD20FA
:102F2000B7DEDDC9B6C0CFD8CCB3B2DDC9B6B7DE27
:102F3000B1D0ADDAAFC42020CCA7D9C9BCAE202017
:102F4000B3A8D9C9BCAE2020CFCEB3C9D7DDCCDF62
:102F5000CAB3DADDC9BCAE20D5B3BCACC9BCAE20A7
:102F6000BADDCADFBD20202020CEDEB32020DABDAE
:102F7000C02020CADED9D120C0DEBDC020DABDC449
:102F8000B120DBBDC42020BDD9B020D1D8C0DEBF68
:102F9000DEBADDC5C4BADBC3DECAC2B6B4C5B2BFD1
:102FA000DE2020232323233F232323232323E36320
:102FB00073F37F73F363E323232323233F23232329
:102FC00023222222A27EA2222222222EB7B9A5C526
:102FD00011C5A5B9B72E222222223E22222222C4C6
:102FE000C4C5C7FBCBCBCEDED1F9380012147D149B
:102FF00012003CC3FEC4C4C4FCC4C4C4C454BC5802
:10300000BC54B0F0000000FFADF5ADADF5ADADF5D1
:10301000ADFF0000F0B25EB353BE52C27EC7FC8962
:10302000FEFE92F2929E92F2929E9E92F2929E9258
:10303000F292FEFE89FCC77EC2C77CC73CE7FFFF59
:10304000243C24E7243C24E7E7243C24E7243C24D4
:10305000FFFFE73CC77CC70FF8877C233F5F919F4A
:103060009151515F51D1D1515F5151919F915F3F2A
:10307000237C87F80F020100000C936143665A6AB3
:10308000A4969988889996A46A5A664361930C001D
:103090000001020000F0E8D0E0F0F4AAFCF4F2E84D
:1030A000FAF4ECFAE8F2F4FCAAF4F0E0D0E8F0006C
:1030B0000000B35EADFFFF817E424242427E00FFD0
:1030C000FF007E424242427E81FFFFAD5EB30000C0
:1030D000D9AF54FFFF40BFA1A1A1A1BF00FFFF00D6
:1030E000BFB9A9A1A1BF40FFFF54AFD900E0ECF7E1
:1030F000EBFFFFE0FFF0F0F0F0FFE0FFFFE0FFF09C
:10310000F0F0F0FFE0FFFFEBF7ECE09393F3939325
:10311000939F9393939393D3F373737FF3D393F327
:10312000939393939F9393939324243C242424E791
:10313000A4A4A4E41CD7363944995697D43CE4247B
:103140002424E7E67BFDE64949CFC9C9C97F606011
:103150007F6CF79C95D858D8999EAB7C5B59594F9A
:10316000FF6A2AFF7FFCF5FEF6F6F7FDF5FC00107E
:103170001F151A0700071A151F1000609296AAD192
:10318000AD936044C744447C4444C744C47C02F1CA
:10319000090909F1027CC744447C4444C744447C87
:1031A0004444C744447C4444C77C8378872021D06E
:1031B00021208778837C447C4444C744447C444435
:1031C000C744447C4444C744A47D03010100010179
:1031D000037DA744C47C4444C744447C44C4C7C45E
:1031E000C4C4C4C4FFC8D3D4D4D4D4D4D4D4D4D4C1
:1031F000D3C8FFC4C4C4C7C4C4C4C4242CF4242585
:103200002624A4ACB4A4A43E4D9A159A4D3EA5A480
:10321000A4B4AC24242625F42C4949794949CF4942
:10322000FE8A12F1015555E925E9555501F1128A39
:10323000FE49CF4949794992929E9292F392BFA852
:10324000FD9FDA34FC941C94FC34DA9FFDA8BF92F5
:10325000F392929E9224E46774545C545656F70F8E
:10326000E01AFF565756FF1AE00FF756545C547495
:1032700064E7240000807098780600003C5E878632
:103280004F3E07000678987080000000001F200065
:103290003C468EB179E9D6E6D969B18F463C00202B
:1032A0001F00000000708C92B2B99D9F9D994A4A00
:1032B000A9AD9F9DB9B2828C70000000000010285B
:1032C0001000F0FCFEBF1F1EBFFEFCF00010281017
:1032D00000000000002050200080758F6F07C9C9D2
:1032E000076F8F758000205020000000102810808C
:1032F000C0E176BF4E804080408E5FB671E0C090E6
:103300002810000000000000000818ABBEC74E47A0
:10331000CEBFA81808000000000000000000000058
:103320001E214DD27B324949B27BD24D211E000075
:103330000000000000000000000C9FE3A1FA090A51
:10334000F9A2E39F0C0000000000000000F0E8D0AC
:10335000E0F0F4AAFCF4F2E8FAF4ECFAE8F2F4FC97
:10336000AAF4F0E0D0E8F0000000B35EADFFFF810A
:103370007E424242427E00FFFF007E424242427E47
:1033800081FFFFAD5EB30000D9AF54FFFF40BFA186
:10339000A1A1A1BF00FFFF00BFB9A9A1A1BF40FF2C
:1033A000FF54AFD900E0ECF7EBFFFFE0FFF0F0F0E7
:1033B000F0FFE0FFFFE0FFF0F0F0F0FFE0FFFFEBD9
:1033C000F7ECE000000000000080C8C54E5BA6A33B
:1033D0007A5FF6CC9800000000000000000000704A
:1033E000FC9FFFFF55C0C0C0C055FFFF9FFC700091
:1033F00000000000000000383C1FBFEAD57F3F3FBF
:103400007FD5EA9F3F3C300000000088888888898B
:103410008A8CF888888888888888FF88888888883F
:103420008888F88C8A898888888888888F8888889E
:10343000F888FE82239A228AA22A822AA302FE8880
:10344000F88888888F88888888888F888888F8880E
:10345000BFA0A2B6A0B2E4B8A2A8B6AEBF88F88852
:1034600088888F88880808080F080808080808084E
:103470000F080808080808080F08080808080808BE
:103480000F0808000000000080000000F804FA7433
:10349000F800000000000000000000000000000133
:1034A00002018080FF00FF76FF8088140800000082
:1034B000000000000000000000010103037F7F3FC7
:1034C00003030101000000000000000000000000F4
:1034D000F028C88C0424545424048CC828F000001C
:1034E0000000000000000000FF006AFFFF2A010149
:1034F0002AFFB76A00FF00000000000020502000F3
:1035000003050C1910342A2A3410190C0503000085
:10351000000000000010A82828E828101028E8E87B
:1035200028101028E82828281000000000010201B7
:103530000081867E22625D5D2262FE868100081423
:1035400008000000040A0E090744A343070D1D15D7
:103550000D0703030407090E0A0400000020247469
:10356000FCF8F0F0F0787C7E7EF6E2E0C0C0E0F897
:10357000000000008E1CFCFEFFFFCB142A55AA5150
:10358000A44A24C3FFFFFFBC1E0F00000103030772
:103590000F0F0F1F1F1E1E1F1E1F1F0F0F070707D6
:1035A0000703010000000000000080404040404050
:1035B000404040404040C0C0C000000000F0B8544F
:1035C000B653F252D252F252B252B25AFEBBD56A3E
:1035D0003F00000000070A0D0A0D0A0D0A0D0A0D32
:1035E0000A0D0A0D070201000000000080E43C08FB
:1035F000101020180E181018080C060810202010A3
:10360000FC800021DE00FEB55BB55BF55BD55BF5AC
:103610005BB55BB55BFDABFE00BE41021D204F8A72
:103620000D0A0D0A0D0A0D0A0D0A0D0A0D0F86630B
:103630001807000000000000F8FC04C46404D4046F
:103640006404E484FC0000000000000000000000AE
:10365000FFFF00012838797869600100FF00000051
:103660000000000000000000070B0D0B0D0B0D0B00
:103670000D0B0D0B07000000000000000000048E81
:10368000DB71200090F79BF79BF79BF79BF79BF76D
:103690009BF79BF79BF79BF79BF79BF79BF79BF79A
:1036A0009BF79BF79000001C2A552A1C00D8F87045
:1036B000E8D40A05033F4989FF89C9FF7EE3B56A5B
:1036C00055556AB5E3C0A0DEB7DEA0C000DBFF7EC3
:1036D000E7E77EFFDB147C54007C11027800782041
:1036E000000000E010A0F8D4ACF8C0E0F0F4AAFCB0
:1036F000F4EAD8E4C6CAE4D8EAF4FCAAF4F0E0C0DC
:10370000F8ACD4F8A010E0000000003C42BD66FF19
:10371000FF66BD423C000000000708051F2B351F57
:1037200003070F2F553F2F571B276353271B572F77
:103730003F552F0F07031F352B1F050807000000FB
:10374000000000000000E020202020202020202079
:103750002020202020202020202020202020202069
:103760002020202020202020202020202020202059
:10377000E00000000000FF0000000704040404044F
:1037800004040404040404040404040404040404F9
:1037900004040404040404040404040404040404E9
:1037A00004040404077F6D576D5B7FFC48F020C064
:1037B00080FF92ED33DE7F0F040301000080C02004
:1037C000F048FC7FDE33ED92FF00000103040FFEA2
:1037D00092F2929E92F2929E9E92F2929E92F29219
:1037E000FEFF243C24E7243C24E7E7243C24E72490
:1037F0003C24FF1F111F1111111F111111111F1155
:1038000011111F111FC27EC7FC89FEC77CC73CE790
:10381000FF0FF8877C231F020100000000FE89FCD7
:10382000C77EC2FFE73CC77CC71F237C87F80F0019
:1038300000000001027F7F55577D7FFCC8F0A0C0CB
:1038400080FFFF0AFCFF7F0F070201000080C0A07D
:10385000F0C8FC7FFFFC0AFFFF00000102070FFE1B
:1038600092F2F21ED252525E5E5252D21EF2F29288
:10387000FEFF243CFF00FF000606060600FF00FFD7
:103880003C24FF1F111F1F101F1010101010101FBD
:10389000101F1F111FFE89FC17EE2AFFE7FF00FF14
:1038A000001F237F80FF000000000001022AEE17A6
:1038B000FC89FE00FF00FFE7FF00FF807F231F025F
:1038C000010000000000000000F8FC0000008088FB
:1038D00074CA92649800000000000000000000001C
:1038E000020F0F0602836AD4558AD555EA411E603D
:1038F000A000000000000000000000625D6E1101E9
:10390000030503023F5966000000000000000000AC
:103910000000000080C078FC9C7CDCB8C080C00047
:1039200000000000000000001C120B05027EEBDE10
:10393000BC79B24D95E68300000000000000000055
:1039400000000000605E777C4301010F7E577A4CD7
:103950000000000000000000000080406090E84887
:10396000343C1408000078A8D020000000000000BB
:10397000000007091B3B57946810A042C52BE6C402
:10398000000000000000000008162A2C180018345F
:103990003F1B0C0F11275970600000000000000051
:1039A000C00000003CE2F262C040C0B01808080845
:1039B0000800000000000020C30C78E0FE0FCE30AD
:1039C000F1E77C1FFFB1198D4C282020100006085C
:1039D0001B32262F3F2F3F2E3D3F2E2B3B2F2D3DC1
:1039E000330C030000000FFE8C1CFEF2060AF6FAF0
:1039F0004EA6AF6CD0B0F060800000000000000365
:103A00000D33324E5E5E2E3E0B050283661D83FF34
:103A1000FD7E00000000000060A0D0D098B8D8D48F
:103A200096B6FDAFAFA7E7AFAED652643800000040
:103A30000000E0A040A010884462528E000040A028
:103A400018A04000000014786CC89FF4EFD2B55E57
:103A500094C474F8D1FED02E938EC04000000000B4
:103A60003040404E677F7F7F7F7F7F7F3F3F1F0FCC
:103A700007010000000010702CD82C7090808894F2
:103A8000BACE66CCBA8C0000000000000000000036
:103A90001CF71E1F2F5F5FFFC7C5EAF4FFFF1FFE65
:103AA00084F80000000000000007000000066F53CB
:103AB0007F07077F577F0701020100000000000019
:103AC0000080C060D0A8A040C0A0D0A8A8F85454DE
:103AD000AA54A840000008BCDAE168CD8040152D4A
:103AE0006B362AEBB6EAB5555A35553A0000000058
:103AF00040787E3D064E7C7404026C7A7F150E3C45
:103B0000383010000000000080D8A828C8501008E5
:103B1000446A0E36E5733A98D89810300000FE716A
:103B20003C8FC6E57E3AED12A850A84EBD72990CA6
:103B30001F3861FE00000000010347A6D68A4B64CF
:103B40001A35AAFD92C0BFC000000001000C085C3D
:103B5000F8A440983868C83888087070188C5C30B1
:103B60003060C00000000080C03191534F2EABD8B0
:103B7000F1E27C2693CBEA96F7BF07000000000035
:103B8000617E1F0E71791D747A1A31797813767FF0
:103B90001B707F0000001080240080808080F0BCBB
:103BA000383AF084800000000080200000001814E3
:103BB0003E150A01E7DFE7FFBFBF3E5EE97DFFF08C
:103BC000E0C8D2840000000A00A0C0FEC9A3FB0721
:103BD000073FEFCFAFDEE08307270713040080FE27
:103BE00081FE60907090B6499349B6907196E080DE
:103BF0008CE89C600000000107DF825FA969E9573B
:103C00004857E969A95F80010100020100000080B6
:103C1000E09CEA390D020305050503020D39EA9C13
:103C2000E08000000000002418E61824000038247A
:103C3000729A4A9A72243800000000000000500076
:103C40000061FE5C32191DFB75D9A9D9757BB15293
:103C50007E000050000004114000611F000CDBAA30
:103C6000FA050409FAAADB0E00401104000000F076
:103C7000A8D87080402226AB1102152EA02020E08B
:103C800050A8F0000000FFF55EAB5D5F60CEC9D2CA
:103C9000E7AE676E72E958AC57BED53E000007022A
:103CA00001000000E0702D1712EC5821120C0300E7
:103CB00001021F00005028C6A8D46A349040A0D04A
:103CC000A8442AAD75AA56DA3E0F07030100952BCA
:103CD000D479288451B955B4DAFA755657D67FA8E5
:103CE00050A060C000000001081C0FDE7FEA77FED4
:103CF000FF9715151F2BD56AF56AF5DF80000000C8
:103D0000000000000000299E97E20AE7FEEBF47035
:103D100020000000000000000040E050EC5E0FFFBB
:103D2000CBA7FBD4FF281F0000000000000000000C
:103D30001C374A340F0000F9D7F01C687F400000A0
:103D400000000000000000008080C0E058C060A0BB
:103D500050A858E854A28C70044202080000F00FEA
:103D600080F0E9DAB776E7C58142F1E3E2A629609F
:103D70005040080200000103060D18112161223392
:103D8000130B060F0B13136286041C400000000087
:103D90008000000040E0F33C703CF3E04000000095
:103DA00080000000000000200000F0A8552FD7FE82
:103DB00058DE37DFAD58F08000200000000008001A
:103DC000003FB5EAFDFF3D3D1D1EFFDFFE951A1FBA
:103DD0000000080000000000E44800F8E00048246B
:103DE00080603028A424A45494D868D0A0C00000D7
:103DF000000000000040820D80FFFF801D80C7CEC4
:103E0000F1EAE1F1DFCFC699BF19277B06000080F8
:103E100000000000000081470705050783FFFBED58
:103E2000EAEDFBFF83077FAFAC700082410000002A
:103E30000000120408014260585E3F0F0F0F1F1F61
:103E40001F3F5F5E600000100804000000000030AB
:103E5000F8F00000008040A0A060B85CB4D4CCB8FA
:103E600060E02040800000187CF800000000080797
:103E700000808E79FF7E06FDB4ABDCABB4A8FD02FA
:103E8000030CF9FEF00004030040606030180C07DA
:103E9000030300DEFF50FD060C18FEFD4CFF06007C
:103EA000001F171F000000000000000000000018A5
:103EB0001E1F101F0700000000070E192638000003
:103EC0000000000000008018C432C8340C244000F8
:103ED000F8B4AA5C4AB4AAE85400A068F068C0A28A
:103EE0008406080001041B7A9F3041C240C44FF38E
:103EF000078367D349C6C320F27F9F0F3F7F1F3ED2
:103F000000408000080405091103F3EEEDAABDFA94
:103F1000EDAAED3A070168900061D2980400000410
:103F20000B00808EF1F9FEFF3F0703030323C70F49
:103F30007FFFF8E0C08000040641D0200000003080
:103F4000F8F00000008040A0A060B85CB4D4CCB809
:103F500060E02040800000187CF8000000000807A6
:103F600000808E79FF7E06FDB4ABDCABB4A8FD0209
:103F7000030CF9FEF00004030040606030180C07E9
:103F8000030300DEFF50FD060C18FEFD4CFF06008B
:103F9000001F171F000000000000000000000018B4
:103FA0001E1F101F0700000000070E192638000012
:103FB0000000000000000040000000000000E0F0F1
:103FC000F8FC7CFCBC7C7CF8F0E00000004080E069
:103FD000C00080000080018400C0E0FFFFF779BAD4
:103FE000DC5ADDBC7AF9FBFFFFC0C2078FDF8F57B9
:103FF0000000009AC797030FBFFFFFFFFCBBD6F47A
:10400000D6BBFCFFFFFF7F070703030783050008FC
:1040100002234712003C3FBFFF3FBE7E3F3F3F3E73
:104020007EBF3FFFB80000000241200004000000F6
:1040300000703EE0000000C028F0D8301818D0F81A
:1040400030E0C0C01810F8346200000000009ACEC2
:104050007EFFFFF8F8FCFC94050A0A0A0795FFFCAE
:10406000F9F9FEFFFF9A3220000000789D0E070F3D
:104070003FE7E7FFBF4AF8F8F8F8F84ABFFFE7E77D
:104080003F0F1F1DB5610000000B1E21605E1F0762
:10409000075F7A653F1F1F1F3F657A471F1F1F1C61
:0540A00040731D0E003D
:104113002F8D45054505238F0505150719030A0945
:10412300090505030C060A4E0A09130C05278E1F01
:104133000A0C060D050101070A09050309060A0B06
:104143002A8E0B0E0A0904060C050405060C050746
:104153002F8D0309050789030905060A0B1F020AA8
:10416300064D05060A0B0E0C23FF8D01020C0505F7
:104173000A1B0B0A0C0105030A0A0A0E0B4C070A59
:104183000E0A0C032ADF0D462F8C270C061D278FE2
:104193000B2B8B2B8F0905030A0A0A2A0D060B0A20
:1041A3000A0A0C260D01030B0C268D278F4F4F4F48
:1041B3001B0905071F0F4F0F0E0A09071FEFFF2FDC
:1041C30009268E0BEFDFFF1F0C0505064FBF6F0F90
:1041D300050503090505238909070E0A09070E0AC0
:1041E300080505060C278B0A0C0505278B0B0C0607
:1041F300090505030A0E0D030A2B8F0E0C05030A8E
:104203000A0A0B0945032E8A0C0404061F0C050633
:104213004F090309030905031D060C060C060D02CD
:104223000505238F2F8D0100090308031F2B8E0E15
:104233000A0C00060B4E0D030001040102190308CA
:104243000E0C010400060A0A0D0504050405040604
:104253000D050101010505030B09060E0A0D030AED
:104263000A0C070D04030A0A0A09030B0B0A0A0ABC
:104273000A0A0A0E0E0C060A08060E0B09030B0A9D
:104283000A0D15060E0C260A0C050505050505067F
:104293000845278F09050507020D01050609020BCD
:1042A30009030A09278E0A0A0A0A0A0A2B8B0C0237
:1042B3000A0C020E0A0801020D474E0906090503FE
:1042C3001F19130E090209061B0C0405060E0C0721
:1042D3000B09010309038B0F08060800060A0C47A4
:1042E3000805222A8D4405130A09060807FFFF0A59
:1042F3000A2A0D020F7FFF0E0A0C030805010503AE
:104303000A0B0A0C034E09060C040405061F0C07CE
:1043130009450101010145030A1F080000021F0AA4
:104323000C010002080001061F0804020804021F12
:104333000906090208030C030A09020C0608030A0A
:104343000C040005050004060D070C0505060D0702
:104353004F0D05030D0309031D05030C470A0E0A40
:104363000D010005470C030A0B0A4E0B4F0B0A0AFB
:104373000A0A1D069F0A0A0A0C00270D05460A0AA7
:104383002B8C038D05078A0A0C27AE0D0505268E97
:104393000D010505030A0A1F05060D0100060C059C
:1043A300090709060A0B09030805060D0608060A8C
:1043B300040105030B08030C030E0D0608060E0982
:1043C3000C0309050407090605060C070D030A4D2E
:1043D3005F0D01070944031B19010405061B0C02A9
:1043E3000A0C030D0500030E060D0209030A080556
:1043F3000D030A0C460C0003030800079F09060877
:104403000A0A0C01010001464E0C05060E0A0E1F96
:104413000B0B09050101270A2A8E0C030E0A0B0C4C
:104423000A0D01060B0A08032A8D020B0A0E0E0A57
:104433000A0D060C000709022A8F0D050609060E50
:104443000A0E464D45064D032E8D15051D05170A0B
:104453000F2B0D05010505030D0689010405030A4C
:104463000D030A0C030B8E0A0500060B0A00070056
:104473002F88050E020E89020B0C074F0801020A52
:104483000C030D11060A0A0E2F8C05062F8E2E8F94
:104493002B890505050505070A0A0B090309030B03
:1044A3000A0A0A0A0A0A0A0A8A0E0A0A0A0A0A2AC5
:1044B3000A0B0A0A0A0A0A0A0A0A0A0A0A0A0A0A58
:1044C3000A0A0C060C060C062E8C050505050507C5
:1044D3000001201070027303340477057512421330
:1044E30024263628FF51185209240A350700057778
:1044F300060608131A07231024FF6121430B540CEB
:10450300740D770E0006340F350516112514760643
:10451300FF35062515261647036105432051196407
:10452300055351FF32174218721A671A751A451A42
:10453300461A361A241A251A261A151A041A051A9F
:10454300561B441C021C071D731E651F640661066F
:1045530000054350FF000670057705070534052263
:104563005635274729652A312B1022202230224035
:1045730022502260227122722273227422752276C3
:1045830022672257223722272217220622052204D6
:10459300225125332F0155FF70067706070634068F
:1045A3001607302C362D332EFF4438773E533954BB
:1045B3003A633B643C00301631203231325332547B
:1045C3003263326432573374344335321A421A52E7
:1045D3001A341A241A503760367053FF17056705CB
:1045E3007346353F0740FF405233420145034510B0
:1045F3004300410707223242296105FF610637055F
:104603007747334556542558705AFF370633593484
:10461300594359445933482049134A7703004D46B7
:1046230029FF004C104B304733075407614E5305A5
:10463300424FFF3544000553061032113212321631
:10464300322232253231323732403241324332451F
:1046530032563261326232663270327432763233BB
:1046630007145B175B215B365B575B675B775C47C4
:104673005D075E045F0129FF225703600006706136
:104683007762416336642165FF2178610E12CD3371
:10469300193A916317D21705E1CD3E1721BE460E95
:1046A30012CD2F193E01D3673E05CD21170606CD46
:1046B3001C1ACD3E17CD3E17C3A563B1DABDCA2080
:1046C30020C4CBDED7A620B1B9C0A5A5A5214660DD
:1046D300E521A32FCDDD252164470E18CD4B19E12C
:1046E300E5CD511AAF32FF00E1F1221947217C4792
:1046F3000E12CD3319CDD9183AF300FE023806CA8B
:104703003247C34D473E0132FF0021676211D02C6F
:10471300010B00EDB02100001167620E0BEDB0CD6F
:10472300B7067EFE0F2818CD9447CD431818F0CD59
:10473300B7067EFE0F2813CD9447CD431818F021FA
:10474300D02C116762010B00EDB0218E470E06CD10
:104753002F193A74623D3274623E5432F800C3EA50
:1047630001B2D7AFBCACB2BBA7A4202020D0C3B248
:10477300AFC320B8DA2020202020B6B32020202089
:10478300B3D920202020D3C4DED920B1D8B6DEC4CB
:10479300B3E5F517380F17DA1D4817DA224817DA89
:1047A3002748F1E1C91738FA219E48F13DE60F0782
:1047B30016005F195E2356EB3AFF00FE01206AE5FF
:1047C300CDD61921D119117648010500EDB021701C
:1047D300480E16CD2F19FE07280AFE16CAA547CD87
:1047E300FDBC18F2AF21D02C010B00EDB12BD12071
:1047F30019E52A7662B7ED52381A227662E1D11AA8
:1048030077218E470E06CD2F19C92192480E0CCD64
:104813002F19E1C9E121864818F321AA48188C21F0
:10482300B448188721BE4818823E04CD3921E5D10A
:104833003E02CD3221E5D1D5CDD619CDCA48FE07EA
:10484300280AFE16CAA547CDFDBC18F2D1E1AF7701
:104853002A766219300321FFFF2276622AF20011C1
:10486300000819EB21C8280608CD3C1BC9BFDACACA
:10487300202020202020202047C6C5D9D62020591B
:104883002F4E3FB5B6C8B6DE20C0D8C5B2D620D3AA
:10489300C1D3C9B6DEB2AFCADFB2211400F40198A6
:1048A3003AD0072C0139300A002C01B80B1027002D
:1048B3000005006400B80B1C2500006400F401B877
:1048C3000BE02E0000300021D119117648010500BC
:1048D300EDB02170480E16CD2F19C9F1211B30CD33
:1048E300DD253A75623D3275622110490E16CD4FB2
:1048F30019FE07280AFE16CAEA01CDFDBC18F23ECE
:1049030003CD1E17CD8808C3590FC3EA01CFCEB319
:10491300BCDEDDB6DEB1D92020C9AFC3D0D93F5943
:104923002F4E3F110001C32C5FC34C5FC3775F2140
:10493300AE610E0CCD3319CD3617CDF9230606CD56
:104943001C1ACD6224C3A25FAFCD7660F1CD116195
:104953001E0021C800C3846011000418C911030498
:1049630018C411040518BF11040718BA1101061859
:10497300B52183490E18CD3319AF32F000C31705A3
:104983003AD2C6D0B4D9D3C9C0DEB9B6DEBCDDBC19
:10499300DEC2C3DECAC5B23A21B0490E12CD331905
:1049A3003A636317D2170521C249C33549B5D3B258
:1049B300D3C9A6B5B2C0D7D5B6C7B9BFB3C0DED5C4
:1049C300B6B6DE2020C7B9C0A7212121E4610E18A5
:1049D300CD3319C317053E02CD76603AFC00B7CA42
:1049E3001705F121FA490E12CD2F19F5CD2A25F11C
:1049F300FE2028EFC33B06C4CBDED7CA20CCB3B21C
:104A0300DD2020BBDAC3B2D92021CC610E18CD330F
:104A130019C317053E01CD7660E121474ACD1461E4
:104A23003E05CD1E170602214D4A01FF04CDC719CD
:104A33003E05CD1E173EC121F02E115763C3E06022
:104A4300E1C33B06CBB6D8202020B1DABDCA202073
:104A5300BFC9CBB6D8C6CCDAC0202020F9BDD9C493
:104A6300C5DDC4C0B6D7CADEBAB6DEB1D7DCDAB6A6
:104A7300C0D8B6B9C0F93AB1DABDD6A4B1C9B5C484
:104A8300BACACAA4B6D0A6D3CCB3B2DDBCC0F9B5FA
:104A9300B0CCDEA620C3C6B2DAA420B6D0C0C1A66D
:104AA30020C4B7CAC5C321F93E04CD7660E13A59A3
:104AB30063173826CD091921D53DCDDD2521E84AD7
:104AC3000603CDC719AFCDB25FAF32A4633E8032C8
:104AD300596321274B0605CDC7193EC221F82E1174
:104AE3005A63C3C860DCC0BCCA2020B3D7D0C92076
:104AF30020BCC8DDC0B220F9DCC0BCC0C1CACCB880
:104B0300BCADB3A6C4B9DEC5B9DACADEC5D7C5B272
:104B1300F9BABAB6D7BBB7C620BDBDD1C9C5D7BCD4
:104B2300C8213AF9D6B8BFDEBAC9DCC0BCA6C0B545
:104B3300BCC0C5A5A5A5F9DCC0BCC0C1CAB6DAC452
:104B4300C4D3C6F9BAC9B8C6A620D6B8BCD6B3C4AE
:104B5300BCD6B3C4BCC0F9C3DED3B6DACADCC0BCAE
:104B6300C0C1C9A5A5C0D2C6A5F9CCB8BCA5B3A67A
:104B7300B6C5A5A5BDDEA5A5C4B9DEA5CABDDEA57E
:104B8300A5A5F9215260C3D3463E05CD7660F1CD8C
:104B930011613E43115B6321A02EC3E0603E06CD4D
:104BA3007660F1CD116121D0021E06C38460E10E4F
:104BB300012164637EB7C2CA4B3E807779CDB25F71
:104BC300AF32A463C3EA01B7CB16CDFDBCFE20CA46
:104BD3003B0637CB1EC33B063E0BCD766021FC6103
:104BE3000E18CD2F19E1C33B063AF000B7200F2171
:104BF30014620E12CD3319CD3E17F1C33B163E0A94
:104C0300CD76603A74622A7562FE02200C7DFE0541
:104C130020073A7B62FE03280400C317053E0AC33C
:104C23005F4C110600C32C5F3E0ACD766011070767
:104C330018F33E07CD7660F1CD11613EC6115D6379
:104C430021182FC3E0603E08CD7660F1CD11613E9F
:104C530023115E6321702EC3E0603E092156635F1A
:104C630016001922794CCD7660F1212662CD1461AC
:104C7300CD7E4C3E80325F63C3EA01210B34CDDD30
:104C83002521AB4C0E18CD4B19FE07280CFE16E15F
:104C9300CAEA01E5CDFDBC18F0CDF923CD5D242191
:104CA300C34C0E12CD8919C9CEDEC0DD2020B6DE7D
:104CB300B1D92020B5BCC3D0D9B6592F4E3F20203F
:104CC300C5C6B6B6DE20B7B4BBAFC020B5C4B6DE2A
:104CD300BCC03E09CD7660C3DE4921E84C0E06CD4B
:104CE3003319C31705C1B2BBC5B1C5212C620E0C64
:104CF300CD3319FDE1CDC404FDE5C317053E0CC357
:104D03005F4C3E0CCD7660C3DE493E0DCD7660F13F
:104D1300CD116121294D0E0CCD4B193EC721202FFA
:104D2300116363C3E060BADACAA5A5A5B5D3C0B25F
:104D3300A5A53E10CD7660E1214C4DCD14613EC555
:104D430021102F116663C3C860B1B6B2C0CF20E192
:104D5300216A4DCD1461210B34CDDD2521704D0623
:104D630005CDC719C3EA01B6CDDE202020CCC0A5EE
:104D7300CBDE20BCDEA5B1B8C6A5B6A5DAC020C47B
:104D8300B7A5C0D2A5F9B7ADA5B7A5B8C9A5B3CB8B
:104D9300DEA6CCB3A5DDA5C3B5B8A5A5A5A5F9BA6F
:104DA300DAA5A5CA20B6D0B6DEA5C9C1B6A5B6DEBA
:104DB300A5A5C2D6A5C0DEF9BFDAA5DEDA2037A5E0
:104DC300A5B22020A5A5B6A52020A530A5A5C6205F
:104DD300A5D9A5DEDBB3F9CCA5B2DDA520C4B8A562
:104DE300B7A5CA31B6A5C9D5A5C9BCC0A5A5D8F96B
:104DF3003E11CD7660E121C828CD14613E05CD2159
:104E0300173EC821282F116763C3E0603A7B623DD8
:104E1300C21705C37C493E12CD766021244EC3E3FD
:104E23004BB1DABDA42020BEB2D2B2C920B6B6DEE1
:104E3300D4B7A6B6B6B9C5BBB23E13CD7660E1CD45
:104E430011613E8421D82E116963C3E0603A68631F
:104E5300173017210B31CDDD2521784E0603CDC741
:104E630019CDED4E215E60C3E34621D74E0E16CD1C
:104E73003319C31705DCC0BCCA2020B6BCDED4C9B5
:104E830020B7DED9202020F9C3DEDDBEC2C9BFB3FF
:104E9300CBDEC4CAB2B6C5B2B6DEF9D6B2BFB3CBA7
:104EA300DEB6DEB1D9D620F9B5B5BFDACA20B7DE92
:104EB300DDC92020B6C0CFD82120F93130303030C1
:104EC30047C4BAB3B6DD20BCC3B1B9DE20D6B32024
:104ED300202020F93AB2C9C1C920CCB3B2DDB6DE75
:104EE300C4B9D9CFC3DED4BDD03A216762010C0067
:104EF3003EC7EDB1C02B360021AB4E0602CDC7191C
:104F03002A766211102719300321FFFF227662C926
:104F13003E14CD7660E1CD1161216863116E4FE5DA
:104F2300D521EB35CDC823D1E1224F4F3A67631723
:104F3300380B219E4F0E0CCD4B19C3EA01D52186A8
:104F43004F0E18CD4B193E05CD1E173A0000E1E573
:104F53002B17380B360021AA4F0E12CD8919C936EB
:104F63000121BC4F0E12CD8919C9003A6D4FB720EC
:104F7300073E2621882E18053E2521802E116A63BF
:104F8300C3CE60B1DABDCA2020CCB3B2DDC920B62E
:104F9300B7DEA62020C2B6AFC02020C0B6D7CADE77
:104FA300BACACBD7B6C5B2BCDEACB1B8C5CBB6D8DE
:104FB300B6DE20B1CCDAC0DEBDB6D0C9C1B6D7C328
:104FC300DEC9DBB220B6DEC4B9C0203E15CD7660A3
:104FD300E121F54F0E18CD4B193E02CDB25F210DE5
:104FE300500604CDC719AF32A4633E80326B63C34E
:104FF300EA01BEAFBAB3CFD9C9C5C6B6B9C3B5CF37
:10500300B4A62020C0B5BD212020C5B6C5B6D4D9CD
:10501300C3DECAC5B2B6F9BCB6BCCCB8BCADB3CA64
:10502300A4D3B3C4CFD7C5B220F9B7BBCFC5D7A4D8
:10503300B1C9B5B6C0C6B1B4D9B6D320BCDAC5B20E
:10504300B6DEF9BFBAC3DEBEDEC2CEDEB3A6A5BCF2
:10505300D9A5A5BAC4C6A5A5C5D9A5F92100013E00
:1050630008327362227462F1211B30CDDD25218C5D
:10507300500E18CD4B193E03CD2117CD631BCD51D7
:105083001A3E03CD2117C3EA01CAB9DEBCB220CB55
:10509300B6D8B6DE20B1DABDA62020C2C2D1212007
:1050A300203E0621030418B921B6500E0CCD331946
:1050B300C31705B6B2C3DDC9CFA6BCD7CDDED63E76
:1050C3002DCD7660CD8C1B3C327B62C317053E161B
:1050D300CD7660F1CD11613E8321D02E116C63C377
:1050E300E0603E17CD7660F1211351CD1461211993
:1050F300510E18CD4B193E0ACD1E172131510E0CFE
:10510300CD89193E80326D63217A62CBF6C3EA0101
:10511300CEB3B7DEAEB8CCBCB7DEC520CBB6D8B6FF
:10512300DE20B1DABDC62020CAB2AFC3B8D9CFCE14
:10513300B3BDD9B0A6B5CEDEB4C0F9003A7B62FEEA
:1051430003CA7C49C317053E18C3DB493E18C35F36
:105153004C003A74631700DA3E51216E510604CDB8
:10516300C7193E80327463F1C3EA013ABABACFC3B6
:10517300DEB7C0B6B1DABDF9DCC0BCCA2020CFC0EF
:10518300DECFC0DEBBB7C6B2D920F9B5BCDEB9BD30
:10519300DEB8C5D63A2020F9CFD8AEB8B6DEB6B25F
:1051A300CEB32020BBDAC0202020F91E00180A1E2F
:1051B3000118061E0218021E031600216F6319361A
:1051C300803E1DCD7660216F63AF010400EDB1CA4F
:1051D3001705F121E9510E18CD4B19117363210005
:1051E3002F3EC3C3C860C3DDBCDEAEB3B6D7C0CFEA
:1051F300B6DEBADBB6DEAFC3B7C0202020203A74D8
:105203006317D217053E0A210304C364503E1FCD22
:105213007660E121C828CD14613E05CD21172130E8
:105223002F3EC9117563C3E0602137520E0BCD3396
:1052330019C31705CAC5C9C5B6C6C0B6D7B1D83EC6
:1052430020CD7660E1CD1161217763115552C322E0
:105253004F003A5452B720073E4621B82E18053E58
:105263004521B02E117663C3D4603E08210607C3DF
:1052730064503E21CD7660218052C3E34BB1DABD49
:10528300D6A420BABADBC92020B6B6DED4B7A6C3EB
:10529300D7BDC9C0DE3E22CD7660E1CD116121616B
:1052A3006311AB52C3224F003AAA52B720073E16EE
:1052B30021582E18053E1521502E117863C3DA604C
:1052C300E10E03C3B44B3E23CD7660F1CD11611ED5
:1052D30023211027C384603E2BCD766021F5520E27
:1052E30012CD3319CD3E17F1CD2C16AF32F000C3DA
:1052F3003B16D1B6B2B6D720C2D6B2C1B6D7B6DE48
:10530300CAC0D7B83E0D210001C364503E2CCD76F0
:1053130060F1CD116121582F1182633E08C32061D2
:105323003E2DCD7660F1CD11613A846317300B3E8B
:10533300CF21602F118363C3E060219E4F0E0CCDFC
:105343004B19C3EA01218C540E0CCD33193E2ECDDB
:1053530076603A9563FE0FC21705F1213336CDC847
:10536300233E07CD211721FB31CDDD2521845306B3
:105373000CCDC7193E07CD2117218463CBFEC3EAA9
:1053830001D6B3D4B8BABACFC3DEB7C0B6B1DABDAB
:10539300D6A420F9CEDDC6BAD2D7DAC0C9DBB2A60D
:1053A300C4B2C3B8DAC3B1D8B6DEC4B3F9B5DAC987
:1053B300C5CAA4B2C6BCB4C920D5B3BCAC2020C0F6
:1053C300DEB2C0DBBDF9B5DAB6DEB5CFB4A6BABA84
:1053D300C620D6CBDED6BEC0F9BAC9BBB2D4B8A6F6
:1053E300B5BABCC020D3C9B6DECCC0C0CBDEBABA16
:1053F300C6F9D6D0B6DEB4AFC3BCCFAFC020F9BFB9
:10540300B2C2C9C5CA3AD7BDC43A20F9D7BDC4CAC6
:10541300CFC0BEDDC8DDCFB4C9BAC4A6B8D8B6B450
:10542300BDC0D2C6F9BAC9CAB3DADDC9C1B6D7A6F7
:1054330020D8D6B3BCD6B3C4BCC3B2D920F9BCDD23
:10544300C3DEDDCABAC9CFC1C920B4C8D9B7DEB07B
:10545300BFC9D3C9C0DEF93132B6B2C920C0B6D78D
:10546300C9CCB3B2DDCAB2CF20C4B6DAC02020F9AA
:10547300BFC9C0B6D720C4C4D3C6BBB7C6BDBDD28F
:105483002120B1DABD212020F9BCAED3C2C920BB93
:10549300B2C0DEDD203E0C210304C3645021AB54B3
:1054A3000E11CD3319C31705B6CDDEC6B6BACFDAA2
:1054B300BCCDD4A6BCD7CDDED63E2FCD7660F1CD04
:1054C30011613E8421D82E118563C3E0603E2BC356
:1054D3005F4C3E24CD7660F1CD116121482F117AC6
:1054E300633ECCC3E0603E25CD7660F1CD116121F2
:1054F300382F117B633E01C320613E26CD7660F1D8
:10550300CD116121402F117C633E02C320613E27F0
:10551300CD7660F1CD116121E82E117D633E86C306
:10552300E060216A60C3D3463E02327562AF3266E1
:1055330062218331CDDD25F12167550E11CD4B1944
:105543000161620AFE162858030AFE262856030A3A
:10555300FE4628543E05CD1E172179550E12CD89DE
:1055630019C3EA01B6B2BCDEADC9D2B6DED0BFDE26
:10557300B3B6DEB1D920BFB3CBDEB6DECBB6D8B679
:10558300B6DED4B2C3B2D920B6D0C9C9DBB2A6C481
:10559300B2C3B6D7CCC0C0CBDEBABAC6B7C5BBB2EE
:1055A3001E0B18061E1218021E211600215663191F
:1055B300087E17D2E85508E6F0F60502CB672012FD
:1055C300CB6F20040662180206462165627E80774F
:1055D30018083A5F62C68B32646221BC4F0E12CD4B
:1055E3004B19C35755218B550E18CD4B19C3EA01DF
:1055F3003E29CD7660E1213256CD146121A32FCD12
:10560300DD252132560603CDC719216762010B0040
:105613003E86EDB12B2803C3EA01360021895606E5
:1056230003CDC7193E0421502F117F63C32061D0DE
:10563300BED4C9CBC4BACFAFC0C5A73ACFD6B9C9B8
:10564300B5BAB33AA6B5C4BCC3BCCFAFC0F9B1DADF
:10565300B6DEC5B2C4CFD3C9C620B5BFDCDAC3201A
:10566300C3DED7DAC5B2F9BFDAD6D8D320B2C2CFF8
:10567300C3DE20C6B2BBDDC0C1BABAC6B2D9DDC073
:10568300DEDBB33F20F9B1DABDCAA420CFD6B9C956
:10569300B5BAB3A6B1B9DEC0F9B5B5B1D8B6DEC4F3
:1056A300B321202020BADAC3DEBFC4C6C3DED7DAF3
:1056B300D9F9B7D0C6BADAA6B1B9DED6B321B7AF36
:1056C300C4D4B8C6C0C2C0DEDBB3F93E31CD766008
:1056D300E1218A570601CDC7193E03CD1E17CD50D0
:1056E3001B21C828CD351A21C333CDC8233E05CD90
:1056F3001E17215663AFBE2840216863BE283A2196
:105703007763BE2834CD2A25219D570603CDC719BB
:10571300217332CDC823CD3A17CD2A25210333CDAA
:10572300C823CD3A17CD2A2521BB32CDC823CD3A84
:10573300172187633680C3EA01CDF92321E2570697
:1057430001CDC719CD501B1102020611CDF1BF23A4
:105753001103040615CDF1BFCD6C24CDFDBC215F33
:10576300624E235E23AF772377237723712373CD91
:105773008C1B3C2173627723772377326A633276FB
:1057830063327863C3EA01BABAC3DEB8C1CAC3D607
:10579300212020B1DABD212121F933C6DDC9B6D0DC
:1057A300B6DEB1D7DCDAB1DABDA62020B6CADEAFE9
:1057B300C021F9BBB2BADEC920C0C0B6B2C0DEB7E1
:1057C300A6C7B8C521F9BDB6DEC0CA20BCDBB2CBC3
:1057D300B6D8C4C5AFC3B7B4C3B2AFC0A5A5F9B1FA
:1057E300DABDC9B6D7C0DEB6DE2020B8C0DEB9C187
:1057F300D9A5A5A5A5A5A5F9C3DEDDBEC2C9BFB3BD
:10580300CBDECAB3BCC5DCDAA4C4B7B6DED3C4DE10
:10581300AFC3B2B8C9A6B6DDBCDEC0A5A5A1E12160
:10582300BB59CD146121C1590E06CD2F19CD365860
:10583300C3EA012100F8E521B058E5CD9D59E5CD36
:105843008C1BFE0138212835FE03384711A759B7B1
:10585300ED527DE1FE04C8FE09C8FE0EC8FE13C862
:10586300237E36002B77C911A759B7ED527DE1FE90
:105873000FD0E5110500197E3600E177C911A7594C
:10588300B7ED527DE1FE05D8E511FBFF197E360029
:10589300E177C911A759B7ED527DE1B7C8FE05C835
:1058A300FE0AC8FE0FC82B7E36002377C9E12DC23E
:1058B300395825C239582100003922E358CD885977
:1058C30021E258E5CD9D59E5CDFDBCFE1FCA8058A8
:1058D300FE20CA6A58FE21CA4F58FE22CA96583182
:1058E3000000FE51C821A7593E303CEDA128FB1111
:1058F3004FA6197DB720C621B0593E403CEDA128E3
:10590300FB1145A6197DB720B4CD88592126590E20
:1059130010CD3319CD5D24CDFDBC2136590604CD00
:10592300C719C9436F6E67726174756C6174696F6F
:105933006E7321B1D8B6DEC4B3CEDDC4B3C6B3DA59
:10594300BCB2BEDE21F9B5C4B8C53F20BCDEAEB3E0
:10595300CEB3B5BCB4D9BEDEF93136B6B2202049D8
:10596300B7B0A6B5BDC4A4B2DBB6DECADDC3DDBD28
:10597300D9F9BDDDCFBEDDA4BFDAC0DEB920C3DEF9
:10598300BDA5A5A5F921A75916010604C506051E3F
:1059930001CDF1BFC1231410F3C921A759AF0EFFE5
:1059A300EDB12BC9313233343536373839414243BF
:1059B3004445464748494A00CDB7B6DE3F204F4EDF
:1059C3003AB5DCD93E2ACD7660F1CD501B219463E4
:1059D3003680CDFDBCFE20280218023600F5CD2A04
:1059E30025F1C33B063E30CD7660F1CD3E173E0137
:1059F300CD2117CD5D24CD361721B53FCDDD252132
:105A03002A5A0604CDC7193E04CDB25F21885A062F
:105A130008CDC719CD5D2421C34C0E12CD891921A0
:105A23008663CBFEC3EA01D6B8BABAC620C0C4DEC9
:105A3300D8C2B2C0C5A4CED2C3D4D9BFDE2020F908
:105A4300DCC0BCA6C0B5BECADE3135B6B2CDC9D046
:105A5300C1CACBD7B9D9BFDEF9BCB6BCB5CFB4B6D2
:105A6300DEB3B4C620B2B8BAC4CA20C3DEB7C5B267
:105A730020F9BABAC3DEB8C1CAC3D6212020B1DA2D
:105A8300BDD62121F9CFB2AFC0D6A5B1DABDA5A548
:105A9300A5F9DCC0BCC0C1CABAC9D6A6B3D7DDC399
:105AA300DEB2D920F9DCC0BCC0C1CAB5D3B2C2D002
:105AB300C9B4DDBBDEB2A6B6B9D7DAC320F9D7BD08
:105AC300C4C0C1C4DBB3BADEB8C6B2DAD7DAC02009
:105AD300F9BCAEB9B2BBDAD9C5B6C3DE20BAC9D6F2
:105AE300C9C5B6A6B3D7D02020F9DCC0BCC0C1CA93
:105AF300BEB6B2B6DEBADCDAD9BAC4A6B2C9AFC092
:105B03002020F9BCB6BCBFC920D4CEDEB3CA20BCAA
:105B1300ADB3CFB8A6D1B6B4D9A5A5F9BADAC3DE69
:105B2300D6B2C9C0DEA4A5A5D7BDC4A6C0B5A5A5D8
:105B3300BEA5B1A5A5A5DAA5BDA5F93E30CD766074
:105B4300C3DE493E3232755BCD766021C55BD1E55C
:105B5300213336CDC8233E05CD2117CD09190603C0
:105B6300E1CDC7193E05CD211721D95C0601CDC76B
:105B7300191E00160021566319CBFEE5218863AF79
:105B8300010400EDB1E1CAEA013600EBD53E05CDD3
:105B93002117D121302F3EC9C3E0603E3332755BFC
:105BA300CD7660210A5C18A63E3432755BCD7660F3
:105BB300214F5C18993E3532755BCD7660218E5C42
:105BC300188CB7D0B6DEB1DABDB6A4DCC0BCCAB996
:105BD300DDBCDEACCCA7D9202020F9C0DEB2C0DB0F
:105BE300BDC9B2AFC0C4B5D8B7D0CA2020D8AFCAD8
:105BF300DFC0DEF9B6C5D7BDDE20D4C2A6C0B5BCB2
:105C0300C3B8D9DDC0DEF9D6B8B7C0C5A4DCC0BC03
:105C1300CA2020B9DDBCDEAC20B3A8D9202020F9EE
:105C2300DCC0BCC62020C9BABBDAC020C1B6D7C904
:105C33002020BDCDDEC3A620F9D7BDC4A6C0B5BD07
:105C4300B5CFB4C620BBBBB9DED6B3F9DCC0BCCA82
:105C53002020CAB3DADDBAB8BCAEC0DEB220BAB314
:105C6300C3B2C5D8F9B1DABDA42020BFC5C0C4C131
:105C7300B6D7A6B1DCBE20F9DCDADCDAD320C0C0AB
:105C8300B6AFC320D5B8BFDE2120F9B1DABD21BA42
:105C9300C9C0DEB2C0DBBDD3B1B2C2C4C0C0B6B3EB
:105CA300BEDE21F9D4C2A6C0B5BEC5B6AFC02020A2
:105CB300DCC0BCC9BEB2C0DEB6D7C520F9D3B3BD04
:105CC300B8DE20BFBAC6D4C220B6DEB2D92020B611
:105CD300DEDDCADEDAF9B1DABDC92020D5B3B7B645
:105CE300DE20CBC4C2202020C0B6CFAFC021F93AFA
:105CF3007B62FE04C21705E1218C63AFBEC2380686
:105D0300214B33CDDD2521195D0E18CD4B19AF3C49
:105D1300327B62C3EA01BDBBCFBCDEB2CFD8AEB823
:105D2300C3DECCB3B2DDBBDACBD7B6C5B2213E37C7
:105D3300CD7660E1214E5DCD1461218331CDDD252A
:105D430021545D0E0CCD8919C3EA01C4DEB3BFDE55
:105D5300B33AB5CFD3D8A6BBBBB9DED63A3E3818D3
:105D6300CF3E39CD7660E1CD5D24217D5D0E18CD2A
:105D73002F19218F63CBFEC3EA01CEABA4BFB3B609
:105D8300BABACFC3DE20C0C4DED8C2B2C0C9B620FF
:105D930020203E3ACD7660E1CD5D24219063CBFE99
:105DA30021A85D18C8C0DEB6DEB7BBCFDCBABAC661
:105DB300CAC4C4DED8C2B9CABCC5B220203E3BCDDA
:105DC3007660E121C333CDC82321045E0604CDC729
:105DD300193E05CDB25F21505E0604CDC7193E0AB8
:105DE300CD1E17CD5D24CD3E17CD3E1721A85E06EF
:105DF30006CDC7193E06CD21173E80329163C3EA13
:105E030001B7BBCFCAB6D0A6D3D0B6C0C6C2B9C03D
:105E1300C9B620F9BCB6BCDCC0BCCACFB4C9D6B3C2
:105E2300C5BCAFCADFB2CABCC5B22120F9BAB22120
:105E3300B1DABDF9B7BBCFA6C4B7C9B6C5C0C620D2
:105E4300CEB3D1AFC320B8DAD9DC2121F9B8DEB1A2
:105E5300A7A7A7212121212121F9CFC0BCC3D3208A
:105E6300DCB6DED4CEDEB3CAA5B6C5DCC7B6A5A5FF
:105E7300A521F9BCB6BCCFC0A4DCC0BCC9D6B3C590
:105E8300D3C9B6DE20B1D7DCDAD9A5F9BADAC3DED5
:105E9300B5DCAFC0DCB9C3DEDCC5B2A5A5A5B1DAFC
:105EA300BDA5A5A5F9D7BDC4CACBB6D8C4C4D3C6AE
:105EB30020B7B4C0A5A5A5F9C0DEB2C0DBBDC9BA81
:105EC300B4B6DE20B7BAB4D92020F93AC0DEB2C0E6
:105ED300DBBD3AD5B3BCACB1DABDD6A420D6B8D4B9
:105EE300AFC020F9BFC4C6C3DEC3D0DDC5C9D3C4A8
:105EF300C6B6B4D9B6DEB2B2A5A5A5A5F9DCC0BCB9
:105F0300C0C1CAB7D0C0C1C920BCB1DCBEA620B2D3
:105F1300C9AFC3D9D6F9BBD7CADEC0DED5B3BCACD3
:105F23002020B1DABD212020F900D511B82C218A17
:105F3300610E0CCD3319CD3E17D17A3274627B32A8
:105F43007562E1CD3424C3EA0111B82C2196610EA8
:105F530012CD2F19FE312804E1C33B060606CD1CE2
:105F63001ACD67243A73623C3273620606CD1C1A5B
:105F7300F1C3EA01CD091911B82C219661010C0076
:105F8300EDB021A8610E06EDB0CD3619CDFDBCFEF6
:105F9300312804E1C33B060606CD1C1ACD67243A1B
:105FA30073623D3273620606CD1C1AF1C3EA01E641
:105FB3000F329663F521F25F110600D5CD3221C170
:105FC300119763EDB0F1211660110400D5CD322194
:105FD300C1119D63EDB03E8032A4633A646232A185
:105FE300633A656232A2633A916317D8C3FA1BB26C
:105FF300B1D8BD2020BCDBB7BC2020BEAFBAB3CF25
:10600300D9B8DBB7BC2020DBDADDBD2020D7BDC487
:10601300202020780469235A044128C80796509603
:106023000BB450FF0C96B4FF10D2D22C01B004195C
:10603300004B00C40988139001EE02881310270057
:1060430000000012224281828500000000000F132D
:10605300818284850000000000000F1424448182A3
:106063008400000000000F82848586000000000089
:1060730000000F2156635F1600197E17D0E1C31786
:1060830005D522AA60CDB960D116003E80215663A2
:106093001977CD6C6121A335CDC82321C0610E0CC6
:1060A300CD2F192A7662110000B719300321FFFFA3
:1060B300227662C3EA01CDD61921D11911C6610135
:1060C3000500EDB0C9DD215B351817DD21CB341890
:1060D30011DD211335180BDD218334180500DD2173
:1060E300A335DD22F460D5E5C5F521C828CDDD252E
:1060F300210000CDC823CD6C61F1C1E1D1D5CD4ED6
:10610300173004E1C3EA01E13E8077C3EA0121BA13
:10611300610E06CD2F19FE31C8E1C33B0600EB36F5
:106123008021956346C5B677EB119617010800EDFC
:10613300B021C828CDDD25213336CDC823CD6C61F0
:106143002196170E18CD4B19F1B72008215A610E6D
:1061530012CD2F19C3EA01BAC9CEDDCAA452B7B012
:10616300A6A4B5BDC4D6D2CFBDE5D5C5F5CD4924CA
:10617300F1C1D1E1C93ABEDEB3BD20BCDDC3DEDD72
:1061830020B2D8B8DEC13AB9DEB9DE2121DCB0CC09
:10619300DFC0DEB6B2C0DEDD20B6DEB1D92020C955
:1061A300CEDED93F20B5D8D93F2020DCA72120203F
:1061B30020B5C4BCB1C521C0B6D7CADEBAC5B6D0F6
:1061C300CA20202020202020473AB6B7DEC920B1BC
:1061D300D8B6CA2020CDD4C9C5B6C9C4DEBAB6C69E
:1061E3003A3ACBB6DEBC20C0DBBDC9D0BED0C5D0E9
:1061F300202020B9B1D9B0D13AC5DDBCDED620C14B
:10620300B6D7C92020CBB6D820A620B6B6B9DED6DD
:1062130020D5B620B6DE20B6AFC3C62020B3BADE83
:10622300B82120BDB2AFC12020B6D7C0DEB6DEB1E3
:10623300C2B22121200119190707050511214114B3
:10624300140000000000000000000000000F010027
:1062530000C8000000010100000000000000000071
:10626300000000000000000000000000000000002B
:1062730000000000000000000054000000000000C7
:10628300000000000000000000000000000000000B
:1062930000000000000000000000000000000000FB
:1062A30000000000000000000000000000000000EB
:1062B30000000000000000000000000000000000DB
:1062C30000000000000000000000000000000000CB
:1062D30000000000000000000000000000000000BB
:1062E30000000000000000000000000000000000AB
:1062F300000000000000000000000000000000009B
:10630300000000000000000000000000000000008A
:10631300000000000000000000000000000000007A
:10632300000000000000000000000000000000006A
:10633300000000000000000000000000000000005A
:10634300000000000000000000000000000000004A
:10635300000000000000000000000000000000003A
:10636300000000000000000000000000000000002A
:10637300000000000000000000000000000000001A
:10638300000000000000000000000000000000000A
:1063930000000000000000000000000000000000FA
:1063A3000000CD2A2521FB66CDDD25CD3E172182B8
:1063B300650602CDC7190603211967C5E5CD2A2550
:1063C300E1E5CDDD25CD3E17E1111E0019C110EB2E
:1063D30021A2650603CDC71921F425CDDD2521E7CB
:1063E300650603CDC71921CD67CDDD2521266606B8
:1063F30003CDC719CDA56B21C8280E18CDB56B21C8
:106403006B660E0CCDB56B2177660E06CD3319CDB9
:10641300AB6B2177660E0CCDB56B2183660E06CD73
:106423003319CDAB6B2183660E0CCDB56B218F6613
:106433000E0CCD3319CDAB6B218F660E12CDB56B20
:1064430021A1660E0CCDB56BAF32E36B21AD662295
:10645300E66B21A32FCDCC6B210B31CDCC6B215B14
:1064630035CDC76B21EB35CDC76BCD2A2521A335A0
:10647300CDC823CDA56B218331CDCC6B213336CD54
:10648300C76B218334CDC76B21CB34CDC76B2113AD
:1064930035CDC76B217332CDC76B21BB32CDC76BF3
:1064A300210333CDC76B21FB31CDCC6BAF32E36B13
:1064B300217E2022E66B061221C538C5E5CDC76BC8
:1064C300E111480019C110F3AF32E36B21F25F22EF
:1064D300E66B060521D53DC5E5CDCC6BE111780012
:1064E30019C110F33E01D367CD2A2521C333CDC88B
:1064F300232110600E03CD3319CDA56B212D40CD83
:10650300DD25CDA56B3E01D36721E426CDDD252115
:1065130082650E03CD3319CDA56B0606CD1C1A215A
:1065230068651103020609CDF1BF217165110603E8
:106533000611CDF1BFCDA56B214568115829016026
:1065430003EDB0CD6B1AAFD367CDA56B2161651198
:1065530001050607CDF1BFCDA56BCDFDBCC95468C0
:106563006520456E645468616E6B20796F75666F44
:106573007220796F757220706C6179696E6721B1D1
:10658300DABDB6DEBFC4C6C3DED9C4F9CBC4CBDE25
:10659300C4C9B6DDBEB2B6DEB7BAB4C3B7C0F9CBB1
:1065A300C4CBDEC4CAD4BBBCB82020B1DABDA6209C
:1065B30020C3DED1B6B420F9D0DDC5C3DE20D6DBDF
:1065C300BACBDEA6DCB6C1B1AFC0F9CCC0C0CBDE5E
:1065D30020CDB2DCA62020C4D8D3C4DEBCC0C9C041
:1065E300DEA5A5F9CAB3DADDCA20CCC0C0CBDE2054
:1065F300BBB6B4A42020F9D6D8D6B22020B8C6C6DC
:10660300C5AFC3B2AFC0A5A5A5F9B1DABDCAB4B2CF
:10661300D5B3C4BCC320C3DEDDBEC2C4C5AFC02076
:106623002020F9BCB6BCB1DABDCACCDEB7C420CEDB
:10663300DEB3B8DEA6D3AFC3A42020F9B1D7C0C55B
:10664300D920C0CBDEB4D1B6AFC3B2AFC020F9BB43
:10665300D7C5D92020CEDEB3B9DDA6D3C4D2C3A516
:10666300A5A5A5A5A5A5A5F9CAB3DADD2020CEDE8B
:10667300B3B9DDB7B9DEDDBBB820686F72696520D9
:10668300BEB2BBB82020747562617361B7ACD7B872
:10669300C0B0C3DEBBDEB2DD742E682020203AB763
:1066A300ACD7B8C0BCAEB3B6B23AC0DBBD20202075
:1066B300B7DED9202020B5B0CCDE2020C0B6D7CAA3
:1066C300DEBAD2B6DED02020CEDD20202020BEB21E
:1066D300C5D9B9DDBEB2C5D9C0C3BEB2C9D6DBB256
:1066E300B1BCADD7BD20B1C5DD202020CFC3A8C527
:1066F3002020C0DEB2C0DBBD2BCDEDEBBB15151BDF
:106703001B15959B9B35D59B9B55959B1B15151B66
:106713001BBDEDEB8B4D49B6FF0001FF0060D05070
:1067230052D3AE6BB1B16BAFDA5A50D06000FF01F8
:1067330000FFED12926DFF0003FF0000CFB49FC86E
:10674300E8FFAADAFF68C89FB44F0000FF0300FF09
:10675300B64944005FB058AF54AC54BC57BE57ADB4
:1067630054AC154F9E375C3C542C478C183F4BB4AC
:10677300279555A54505050585C505758FFD8FFD30
:106783008F750525E5D5F5F5F5050565ED3F117320
:1067930096CDA0AE17071FAEA2C1067E527E06019C
:1067A300F2ACDBA7DBAFD7A8D8387EC9030301035C
:1067B300F41FC828C81FF4032BF36973FB03C166D6
:1067C3002F17172F66C302000139FFFFFFFFFF7F5B
:1067D3003F9FDFCFEFEFEFEFCFDF9FBF3F7F7FFF26
:1067E300C783397D7FFFFFFFEFE3F9FD3C8EAF2FBA
:1067F300C14D7535892B371709C5754D54D99BB3D1
:1068030027EFCF9F7F7FFFFFFF83B8ABB2AD1FFFA3
:10681300CC247399008479E284F613A448F30CFF23
:10682300FFFFFFFFFFFFFFFFFF3FDF6F5654515690
:106833005E77D9E8775C535354576FDE3EFFFFFF13
:10684300FFFF0000000000000080000000000000C7
:10685300103060E0F0F8380000C070D0D070F0D095
:1068630070F0F050D0D070C00000808000000000B5
:106873000040C0C0C0C0808000C0C0C0C080000055
:1068830000000000C040FC1CCCCC0C8CFC40C000C1
:1068930000000000C080800000000000000000C075
:1068A3004040F89C9C3C1CF840C0000000C0A0E0A5
:1068B300B0D8685830E080800000008040FC9C9C89
:1068C300FC408000000078101EB04106DC3466CC2A
:1068D3009850000040C0C0C1C69E7F8F8EC14BFF41
:1068E300CF37DFB4F7FC9CBFD59D97DDD5B7FDFD52
:1068F300F7F5BDD7959DD7B59DFFFDD7B7779FEF2B
:10690300BEFE8B8F3F87F7FDF9E3E7E71FC7C28022
:10691300C08000000303830F03E11B030383C3C78A
:10692300DFFE8680FF9B8383FE0000000000E033D0
:1069330063C7050315B1050DF70300FC322F303F84
:106943003070EEDE3CAF6CFF80C0A037EA0EFAACCD
:10695300DC5A77300000C000000701010E1B342908
:10696300E97F00A0C3C73F07E37BD6AB55AA55BE5B
:1069730077A36AA062A862A060A268A022A87ABADC
:10698300682260A06AA062A068A260AB72A37CAF19
:1069930055AAD5EA75FF218FF3FFFFFFFB1839FFD7
:1069A3007B5300000000CF00C00100003879F935A7
:1069B300FF1D3D7B33030303C30BC000040607061F
:1069C3000607060340139C600F0000F9C760004FE1
:1069D3002880EE43760F1EF987FF1480FF0457FCCF
:1069E300807C0B7E807F02FF0002C7C7DFC60001E9
:1069F300C17A00804F337C4300100CC4B14D730245
:106A030003CE13026506350605863584FD565456B6
:106A130054FE3526C58605260DD6050645E21B22FE
:106A230003017E11A8E97E30031F053DFF0F070513
:106A3300000000008040520401000C1010988000F8
:106A4300018084180800006026222022020202A08E
:106A5300288909202646058808D0A2A3A2C20203DA
:106A630001000000F828A7A0A0A2F8073072703731
:106A730000F002A0A362E6FF000000000781E01E11
:106A8300F300909191919382821417151424242476
:106A93002928480F080B48484A090E083F6D0D0D79
:106AA3000D0F1C08484948484485840404868282A3
:106AB300C203010100004040404040203090080CD8
:106AC30000001109010446C2DAFAF36078300000CD
:106AD3000080F0E8821042080000F05884AEB9BD8F
:106AE300BD91BFD8EC8C0C3C4AD7B484EC87FE0430
:106AF300044448505746662646444704840705071E
:106B0300040706060604A4F7FCA0102C83813CC2EC
:106B1300078C04C63A0A0202027E822625157CC827
:106B230009090848081071D01111111928CA0A0A55
:106B330006F404055585077606067C840428D89850
:106B4300123222226242C2820301010100000002CA
:106B5300040000091224400000000700000038244C
:106B63005F5159515F5F241B0000030E0808121484
:106B7300191218090505050706000000F058B4545A
:106B8300BA56B15DB955B956B25CB458F0000200BB
:106B93000038EC32BE2DB42FBF3837E001FE000EB3
:106BA3000098CD3E17CD3E17CD3E17CD3E17CD3EB7
:106BB30017C9CD3319CDA56B21C8280E18CD3319AC
:106BC300CDA56BC911C823180311DD25ED53DD6B6A
:106BD3003E01D367E5CD2A25E1CD0000AFD3673E63
:106BE30000F521AD66110600CD32210E06CD331915
:0C6BF300CDA56BCDA56BF13C32E36BC966
:106E00003E0F32726221826E0E06CD2F19CD0FBD5C
:106E1000225B6221886E0E06CD2F19CD0FBD225D3B
:106E200062218E6E0E06CD2F19CD0FBD7D326462AC
:106E300032A1637C32656232A2633E7F327A622184
:106E4000946E0E02CD2F19CD09BD32616221966E6E
:106E50000E02CD2F19CD09BD32626221986E0E024D
:106E6000CD2F19CD09BD326362AF32A36332A46363
:106E70003292633D325A62CD09BDCB7FC2B25FC34D
:106E8000B51B4D48502048504D4D50204D50454465
:0A6E9000504541504553455445411B
:00000001FF
