:10010000CDFDBCCD2501CDFDBCCD2A01CDFDBCCDA5
:100110002F01CDFDBCCD3401CDFDBCCD3901CDFDD0
:10012000BCCD3E01C92171011819218A0118142181
:100130008501180F217E01180A21910118052198C7
:100140000118007EB7C847237E4F1E0D503E80D356
:10015000181500000000000020F750AFD31815005C
:1001600000000000000020F61D20E10D20DC231817
:10017000D2B904A004960482057805690600D20667
:10018000AA05780A00FA02D201005F035C04730436
:0B01900000D20396046E0600AA0200D5
:00000001FF
