:2001000021400A11610A012100EDB0CD2603CD1103060511C004C521DE07010800EDB021F0
:20012000880019E5D1C110EE1184070E2421E607EDB0CD11030607C53EA6F5D3403E2DCD59
:200140007A02F13CD3403E2DCD7A02C110E90605CD87020610110400210A08CDF1BF06052E
:20016000110A02211A08CDF1BF0607110A03211F08CDF1BF218B0122F000110802ED53F2A6
:2001800000010302ED43F400CDD102CDFDBCF5CDDE02F1F5CDA002CDEB02CDD102F1EE28B7
:2001A0002803C3E403ED5BF2007AEE0228163A130BFE1E300FF600280B21130B11610A01F0
:2001C0002000EDB0CD26030606CD8702117E04012A00216408EDB0110E050E06218E08ED46
:2001E000B01132050E06219408EDB0119E050603C5012A00210E05EDB021660019EBC110BF
:20020000EF114E070E2A219A08EDB011DD040E2E21C408EDB011AD070E2E21F808EDB0CDAD
:2002200011031110010608212608CDF1BF1108020610212E08CDF1BF1108030610213E0810
:20024000CDF1BF1108040610214E08CDF1BF3A7A0A4721C00910021808C511800019C11099
:20026000F822F000061011820AC5E5EB36FFEB13010800E1EDB0C110F0C9010000030000E4
:20028000000000A8C818F65015C51E00069021EE03CDD0BF3E19CD7A0215C110EC1600C943
:2002A000FE1F2815FE202809FE212815FE222819C93AF3003D32F300C93AF3003C32F30029
:2002C000C93AF2003D32F200C93AF2003C32F200C9ED5BF2000606215E08CDD0BFC9ED5B70
:2002E000F200060621EE03CDD0BFC9ED4BF400ED5BF2007AB8DC030379BADC0A033E0832BB
:20030000F200C91603ED53F200C91602ED53F200C90606217E041600C51E000690CDD0BF61
:200320002314C110F3C9217E043600117F04015F03EDB0C91101021808110202180311034B
:20034000020606212609CDD0BFC90603110101215C09C51E01CD8E03010D000914C110F248
:20036000C90603110201215009C506121E02CDD0BF2314C110F3C90603110501215009C5A1
:200380001E05CD8E03010D000914C110F2C90606CDD0BFC90603110201212C09C51E02CDCF
:2003A0008E032314C110F5C90603110401213E09C51E04CD8E032314C110F5C90604110138
:2003C00001218609C51E01CD8E032314C110F5C90604110501219E09C51E05CD8E032314FE
:2003E000C110F5C9CD53BEEE51C82AF000E900000000000000000000000000000000000086
:200400000000000000000000000000000000000000000000000000000000000000000000DC
:200420000000000000000000000000000000000000000000000000000000000000000000BC
:2004400000000000000000000000000000000000000000000000000000000000000000009C
:2004600000000000000000000000000000000000000000000000000000000000000000007C
:2004800000000000000000000000000000000000000000000000000000000000000000005C
:2004A00000000000000000000000000000000000000000000000000000000000000000003C
:2004C00000000000000000000000000000000000000000000000000000000000000000001C
:2004E0000000000000000000000000000000000000000000000000000000000000000000FC
:200500000000000000000000000000000000000000000000000000000000000000000000DB
:200520000000000000000000000000000000000000000000000000000000000000000000BB
:2005400000000000000000000000000000000000000000000000000000000000000000009B
:2005600000000000000000000000000000000000000000000000000000000000000000007B
:2005800000000000000000000000000000000000000000000000000000000000000000005B
:2005A00000000000000000000000000000000000000000000000000000000000000000003B
:2005C00000000000000000000000000000000000000000000000000000000000000000001B
:2005E0000000000000000000000000000000000000000000000000000000000000000000FB
:200600000000000000000000000000000000000000000000000000000000000000000000DA
:200620000000000000000000000000000000000000000000000000000000000000000000BA
:2006400000000000000000000000000000000000000000000000000000000000000000009A
:2006600000000000000000000000000000000000000000000000000000000000000000007A
:2006800000000000000000000000000000000000000000000000000000000000000000005A
:2006A00000000000000000000000000000000000000000000000000000000000000000003A
:2006C00000000000000000000000000000000000000000000000000000000000000000001A
:2006E0000000000000000000000000000000000000000000000000000000000000000000FA
:200700000000000000000000000000000000000000000000000000000000000000000000D9
:200720000000000000000000000000000000000000000000000000000000000000000000B9
:20074000000000000000000000000000000000000000000000000000000000000000000099
:20076000000000000000000000000000000000000000000000000000000000000000000079
:20078000000000000000000000000000000000000000000000000000000000000000000059
:2007A000000000000000000000000000000000000000000000000000000000000000000039
:2007C000000000000000000000000000000000000000000000000000000000000000000019
:2007E00000048EDB71200090F79BF79BF79BF79BF79BF79BF79BF79BF79BF79BF79BF79B93
:20080000F79BF79BF79BF7900000C0DEB2C0DBBD20C920B7DEACB8BCADB353544152544304
:200820004F4E54494E457C2020202020207C4D3AD2C6AD2D20207C2020202020207C493ABF
:20084000BCD7CDDED9207C2020202020207C443AC3DE2DC020207C2020202020207C001C89
:200860002A552A1C000000E010A0F8D4ACF8C0E0F0F4AAFCF4EAD8E4C6CAE4D8EAF4FCAA1F
:20088000F4F0E0C0F8ACD4F8A010E0000000003C42BD66FFFF66BD423C0000000007080580
:2008A0001F2B351F03070F2F553F2F571B276353271B572F3F552F0F07031F352B1F0508F1
:2008C00007000000000000E020202020202020202020202020202020202020202020202031
:2008E0002020202020202020202020202020202020E00000000000FF0000000704040404E2
:20090000040404040404040404040404040404040404040404040404040404040404040457
:200920000404040404077F454549497FFC8810204080FF402121927F0F04020100008040A6
:20094000201088FC7F92212140FF00000102040FFE42424242424242C2C24242424242425F
:2009600042FEFF80808080808080FFFF80808080808080FF1F10101010101010101010106C
:2009800010101010101F1010202041FE0000000080FF02028141201F020100000000FE4183
:2009A00020201010FF80000000001F2041810202000000000102FFFFFFFFFFFFFFFFFFFF5A
:2009C0000101010101010101010104010401000101010101000000000001030001010004F4
:2009E0000000000101010101000101010100000101010101010100000001010101010101E0
:200A00000100010101010101040000010200000000000000000000000000000101000000C6
:200A20000001010000000000000000000000000000010104000100000401010100010000A5
:200A4000010F0F030305050101012D19000000000000000000000000FF010000C800000056
:200A6000010000000000000000000000000000000000000000000000000000000000000075
:200A80000000FFFFFFFFFFFFFFFFFFFFFFFFFFFFFFFFFFFFFFFFFFFFFFFFFFFFFFFFFFFF74
:200B0000FFFFFFFFFFFFFFFFFFFFFFFFFFFFFFFFFFFFFF00000000000000000000000000E8
:1D0B20000000000000000000000000000000000000000000000000000000000000B8
:00000001FF
