:100100002100003922630ACD430A06041600219F0C
:100110000AC51E040660CDD0BFCD170A2314C11036
:10012000F011050421830A060ECDF1BFCD320AFE7F
:100130001E2812110504060E23CDF1BFCD320AFE92
:100140001E280218DCCD430A110300060B21680AA1
:10015000CDF1BF21730ACD6B0621050222F20021E9
:10016000030222F000EB3E3ECD62BECD320ADC80BF
:1001700006FE282805CD140618F13AF100FE03DA30
:100180008B01CA0804FE05DAEE04C8CD4206CD4351
:100190000A219D031100000618CDF1BFCDAD02323A
:1001A000E203C630110101CD62BE21B50311000288
:1001B0000618CDF1BFCDAD02F5C630110103CD62F9
:1001C000BEF1CB27CB27CB2732E30321F303CD8F1F
:1001D00002AF32FD03CD130ACD430A21CC03110235
:1001E000000616CDF1BFCDE3023AE203473AE6033B
:1001F00032FA01C5CD9B09E60FFE0F30F76F2600DE
:10020000EB21430919C17EFE2028E2365F10DE3A59
:10021000E60321430911000147C53E5FEDA1D5E585
:10022000CC6903E1D11CC110F011E6032AE403CD2F
:100230005203F5CD6C022AEA03CDA302F120082374
:10024000CDA30221FD03343AE3033D32E303C2D8D8
:100250000121FD037ECD8F0221EC03110203061361
:10026000CDF1BFCD130ACDFDBCC3450128043EF03E
:1002700018023EED110003CD62BECD0B0ACD320354
:100280002143091100010630CDF1BFCDFDBCC936B7
:1002900030D60A38033418F9233630C60AC8343D3C
:1002A00020FCC97E3C3C20023E013D77C9CDFDBC0F
:1002B0000600FE2C282AFE2D2825FE2E2820FE349E
:1002C000281BFE352816FE362811FE3C280CFE3D64
:1002D0002807FE3E280218D504040404040404047C
:1002E0000478C92AF70CCDFF0311F90C2824D5CDC9
:1002F000B509225B09110000B7ED52E128153EFF58
:100300000EFFEDB1EB2A5B09CDFF03225B09EB2069
:10031000EDEBEB22E403AF0EFFEDB122E703792F03
:100320003D32E603AF0EFFEDB122EA03792F3D32F5
:10033000E903CD23092AE4031143093AE6034F06F2
:1003400000EDB02AE703115B093AE9034F0600ED1F
:10035000B0C90143091803015B09C51A47D1C51A81
:10036000EDA113C1C010F7AFC92B3687C5E5D51174
:1003700000012143090618CDF1BFCDB506D1E1C179
:10038000FE1F2806FEFFC87718E2D5E5C51100025A
:10039000215B090618CDF1BFC1E1D118CFB1C5C9A4
:1003A000B6BDDEA6C0B2CCDFBCC3B8C0DEBBB220D7
:1003B000317E393F20B6B2BDB3A6C0B2CCDFBCC3DC
:1003C000B8C0DEBBB220382A317E393F5FA6B3D237
:1003D000D62042533AB2D0A6D0D920454E543AC284
:1003E000B7DE0428E70F0FF70F0E0610B6B2C4B33E
:1003F000BDB33A343020BEB2B6B2BDB33A0037D541
:10040000110100B7ED52D1C9CD430A11040021C139
:1004100004060FCDF1BF21020122F000CD210721FA
:100420005B097EB7CA4501FE20CA45011143090197
:100430001800EDB0CD330911040221D004060BCD14
:10044000F1BF21020322F000CD5D073A5B09B7CA74
:100450004501CD9F04E5214309AF0EFFEDB101BD7C
:10046000F609E5C1D1214309EDB0215B09AF0EFFCB
:10047000EDB101A5F609E5C1215B09EDB0EBAF7760
:1004800023772336FF21F70C3411030421DB040604
:1004900013CDF1BFCDFDBCFE07CA0804C345012A38
:1004A000F70C110100CD800911F90CEBD83EFF0EBD
:1004B000FFEDB11BE5EB110100CD8009EBE130ED63
:1004C000C9B4B2C0DDBADEA6B2DAC3B8C0DEBBB210
:1004D000B2D0A6B2DAC3B8C0DEBBB2C2C2DEB9C304
:1004E000B6B7CFBDB63F20593AC2C2DEB9D9CD4268
:1004F00006CD430A21D9051102000613CDF1BF2113
:100500000000CD6F0521EC051102040612CDF1BFEC
:10051000CDFDBCFE07C245012AE403E53EFF01FF15
:1005200000EDB1E52AF70C013500CDFF0322F70CF1
:100530002821ED4BD705B7ED42282CEBE1E53EFF36
:10054000013C00EDB1EBCDFF03EB20F2D1D5B7EDCF
:1005500052E5C1E1D1EDB021FE051104050606CD3D
:10056000F1BFCDFDBC188701350018E7C34501E593
:10057000225B0922D70523CDFF0321F90C2005CDED
:1005800011031803CDFE022143091100010630CDED
:10059000F1BF2AEA03E57E21F303CD8F02E1237E3A
:1005A00021FD03CD8F0221EC031102030613CDF1CF
:1005B000BFCDFDBCED5BF70CE123CDFF032804FEAE
:1005C00020280AFE1F2808FE28C8E518E42B2B2344
:1005D000CD800930F818982300C3DEB0C0C9BEDD55
:1005E000C0B820B3B42CBCC02C454E54BAC9C3DE2D
:1005F000B0C0A6B9BCCFBDB63F20592F4E3FB9BC45
:10060000CFBCC021B6B7BAD1B6B7B6B4B9BD2020F9
:10061000D3C4DED9CDAC09FE013808280BFE03385F
:100620000C18F1211F0C180821670C180321AF0CBE
:1006300016020603C51E110618CDD0BF2314C11023
:10064000F3C92AF70C7CB7C07DB7C0CD430A21603F
:1006500006110601060BCDF1BFCDFDBCF1C345016E
:10066000C3DEB0C0B6DEB1D8CFBEDD06041602C50B
:100670001E040604CDF1BFCD170A1423C110F0C922
:10068000F5ED5BF0003E20CD62BEF1EBFE1F280FC2
:10069000FE20280218103AF300BC280A2518073A51
:1006A000F200BC280124F522F000EB3E3ECD62BEF4
:1006B000CD130AF1C9210707E5CDFDBCFE51CA6281
:1006C0000AFE18300D3D28263D210B0716005F1944
:1006D0007EC9FE1E281BFE28281AFE29281AFE3174
:1006E0002819FE322818FE392817FE3A2816F1AFCD
:1006F000C93E20C9E13EFFC93E6CC93E69C93E6F93
:10070000C93E70C93E1FC932F400C9717765727461
:1007100079756173646667686A6B7A786376626E0E
:100720006DCD7309E5CDB506E1B728F8FE1F281D8C
:10073000FEFF282877116F09CD8009300123E5EDF0
:100740005BF000215B090618CDF1BF18D836001107
:100750005C09CD800938E72B360018E2C9CD730952
:10076000AF32F50832F608E5CDB506E1B728F8FE58
:100770001FCAF708FEFF28E4CDB607E5F5ED5BF0EC
:1007800000215B090618CDF1BFF130DCE1116F09E2
:10079000CD800930D223F53E00FE0D280FFE093032
:1007A00007AF329807F118BF3EDE18023EDF77AF81
:1007B000329807F118C5E50821F5087EB7CA6F0819
:1007C000232B7E08FE612817FE692813FE75280F6B
:1007D000FE65280BFE6F2807FE6E283AC3700808D6
:1007E000212808010E00EDB9C26F08417832980740
:1007F0003E05CDF60926001129081908FE612812C8
:10080000FE69280DFE752808FE652803FE6F232368
:1008100023237EC3D1083EDDC3D1086B73746E6899
:100820006D797277677A646270B6B7B8B9BABBBCD3
:10083000BDBEBFC0C1C2C3C4C5C6C7C8C9CACBCC70
:10084000CDCECFD0D1D2D3D4B2D5B4D6D7D8D9DAB1
:10085000DBDCB2B3B4A6B6B7B8B9BABBBCBDBEBFD9
:10086000C0C1C2C3C4CACBCCCDCECACBCCCDCE08BE
:1008700011D108D5FE612847FE692846FE75284536
:10088000FE652844FE6F2843FE202842D111E90866
:10089000D5FE6BC8FE73C8FE74C8FE6EC8FE68C87D
:1008A000FE6DC8FE79C8FE72C8FE77C8FE67C8FE36
:1008B0007AC8FE64C8FE62C8FE70C8D1E1B7C93EFE
:1008C000B1C93EB2C93EB3C93EB4C93EB5C93E2066
:1008D000C9E177E521F508AF77237721910A110067
:1008E000050603CDF1BFE137C932F508110005CD8A
:1008F00062BEE1B7C90000E521F5085E1C1D2810A5
:10090000360023360021910A1100050603CDF1BF00
:10091000E13600115C09CD8009DA7B072B3600B780
:10092000C37B07D92143093600114409012F00ED8B
:10093000B0D9C9D9215B093600115C09011700ED56
:10094000B0D9C968616E64206F76657220706F7768
:100950000072000000000000000000B9DDD8D6B32E
:10096000B8A6B2BCDED6B3BDD900000000000000BE
:10097000000000EB3E3ECD62BECD3309215B09C9CC
:10098000D5E5B7ED52E1D1C9F5CD9B09F5067FCD8F
:100990009B0910FB6FF1CBBF67F1C9215B3A545D36
:1009A00029291911116419229C097CC9CD9B09E6DA
:1009B00007C96F2600E5CD8809D1CD8009380BB76E
:1009C000ED52CD8009280630F7C9EB18E8E5CD9B3C
:1009D00009E1FE80D8210000C900000000000000ED
:1009E0000000000000000000000000000000000007
:1009F000000000000000C5D55F1600210000B728E8
:100A000007050428031910FDD1C1C93EFA180A3E92
:100A10007818063E5018023E28C501000003000069
:100A2000000000B8280218F5C1C93EC818063E01EA
:100A300018023E78C547C5CD53BEC138EBB705286F
:100A4000E718F31600D5060C1E00C5D521910A063D
:100A50000CCDD0BFD11C1CC110F0D1147AFE0620E1
:100A6000E4C931F87FC345014D4F44452053454CFF
:100A7000454354B1C5B3D2B6B7BAD1B9BD2020B53C
:100A8000DCD92070757368207370616365206B65B5
:100A900079000000000000000000000000000000DD
:100AA000001030303030303030FEFEFE303030302C
:100AB0003030FEFEFE30303030303030200000006C
:100AC000000000000000040C3C7870040C3C7870BE
:100AD000000080E07C3C1C080000000000000000DA
:100AE000008098989898989898988880081818186E
:100AF000F8F8F818181898981C1C18100000000036
:100B0000000000000000F8F8F81919191818FFFF84
:100B1000FF18191919FCFCF8100000000000000073
:100B20000000000000FFFFFF6363636363FFFFFFDC
:100B3000FF6363636363FFFFFE00000000000000CB
:100B40000001D9D9D9D9D9D9D9D94901C0C3C3FF4D
:100B5000FFFFC3C3C3C3FFFFFFC2E0E0C0800000CC
:100B60000006060606060707070686C6F6FE7F3F4E
:100B70007FF6E6C686070707060607070604000095
:100B800040C0C0C0C0DFDFCFC6C6C6C6C6FFFFFFBD
:100B9000FFC6C6C6C6C6CFCFCFE0E0E0400000002B
:100BA0000000FCFCFC1818F8FCFC000000FCFCFC3D
:100BB00018181818181818FCFCF80000000000009D
:100BC0000010303018181C0C0E070703010000003D
:100BD00000000103070F0F1E1E3E3C1C0C0000000E
:100BE000000000000000000000000000003F3F3F48
:100BF0003F000000000000000000000000000000B6
:100C000000001F1F1F06061F1F1F0000003F3F1F81
:100C1000060606060606061F1F1F000000000080CD
:100C200040202020202020202040C0C04020202024
:100C300020202020204080FF00114411040000519A
:100C40000400FFFF00104510440000114400FF3F66
:100C50002C341A161A161A161A343F3F341A161A5A
:100C6000161A161A342C3F8040202020FC04A808B5
:100C70005020C0C04020202020202020204080FF85
:100C8000001144113F4042900500FFFF0010451045
:100C9000440000114400FF3F2C341A161A161A168D
:100CA0001B363F3F341A161A161A161A342C3F8078
:100CB00040202020202020202040C0C02090080874
:100CC0002444F820204080FF00114411040000510A
:100CD0000400FFFF0012804942643F114400FF3FBF
:100CE0002C341A161A161A161A343F3F371B161AC6
:100CF000161A161A342C3F2500626520636F6E6346
:100D000065726E65642061626F7574206E00DD200F
:100D1000C6C2B2C3BCDDCADFB2BDD9000C0CFF62D3
:100D20006520636F6E6365726E65642077697468B1
:100D3000206E00DDC6B6DDB9B2BCC3B2D9000C0A64
:100D4000FF617320666172206173206E20626520EE
:100D5000636F6E63656400DDC6B6DDBCC3B2B4CA42
:100D6000DE000E07FF61732061206D61747465728F
:100D7000206F66206661637400BCDEC2A6B2B3C495
:100D8000000808FF73746F70206279206E00DDC662
:100D9000C0C1D6D9000C0BFF73746F7000B6C2C40B
:100DA000DEB320BAB3B220D4D2D9000F0DFF6265F2
:100DB0002073757265206F66206100B1A6B6B8BC5D
:100DC000DDBCC3B2D9001109FF626520737572657D
:100DD00020746F20646F00B7C2C420C4DEB320BD8E
:100DE000D9000805FF627265616B206F757400BEE3
:100DF000DDBFB3C5C4DEB6DEB7D5B3C6CABCDECF71
:100E0000D9000A06FF627265616B20646F776E001D
:100E1000B7B6B2C5C4DEB6DEBADCDAD9000505FF66
:100E20006D616B652073757265206F6600A6C0BC2E
:100E3000B6D2D9000D08FF616772656520776974C5
:100E4000682020746F00C6C4DEB3B22020C6BBDDAC
:100E5000BEB2000909FF6C656164206120746F20D7
:100E60006200B1A6CBDEC6D0C1CBDEB8000706FF5C
:100E70006C65616420746F206100B1C6C2B3BCDED2
:100E8000D9000706FF636861676500C0DEB2B7DDA1
:100E9000000806FF63686167652061206200B1C6D3
:100EA000CBDEA6BEB2B7D5B3BDD9000705FF6265DC
:100EB000206368616765642077697468206100B1A8
:100EC000C9D6B3B7DEC3DEBAB8CAC2BBDAD9000727
:100ED00001FF696E206368616765206F66206E00A0
:100EE000BCD6B8D1C5C4DEA6C0DDC4B3BCC3000641
:100EF00004FF666F72207375726500C0BCB6C620B1
:100F0000B6B8BCDEC2C6000906FF776169746572B7
:100F100000B3B4B2C0B1000101FF637573746F6DAB
:100F2000657200B5B7D4B8BBCF000502FF7261721D
:100F300065206D656469756D00CADDC5CF20C1D5BA
:100F4000B3B6DD000503FF77656C6C20646F6E65DA
:100F500000D6B8D4B9C0000C0AFF616E7974686914
:100F60006E6720656C736500CEB6C6C5C6B6BADEC0
:100F7000BBDEB2CFBDB620CB20B7DE000303FF74CB
:100F8000697000C1C2CCDF000403FF6C656164209E
:100F90006E20696E206200DBCEDEC2C4BAB3B6DE5C
:100FA000B8C3DEDDA6CBC2CADFD920000502FF62CE
:100FB00065206368616765642077697468206100F3
:100FC000B1C9D6B3B7DEC3DEC0B2CEBBDAD9000931
:100FD00007FF68616E642061206200B1C6CBDEA6A7
:100FE000DCC0BD000303FF68616E64206F7665722C
:100FF00020706F77657200B9DDD8D6B3B8A6B2BCE1
:10100000DED6B3BDD9000202FF68616E6420646F52
:10101000776E00C3DEDDC4B3C5C4DEA620C2C0B493
:10102000D920C9BABD000503FF68616E6420696EEE
:10103000206E00DDA6C3B2BCD5C2BDD9000101FF40
:1010400068616E64206F7574206E20746F2061007B
:10105000B1C6DDA6B8CADED9000605FF66616365C4
:1010600000B6B520C1D6B8D2DDBDD920C0C1D1B639
:10107000B3000302FF6265206661636564207769DF
:101080007468206E00DDC6C1D6B8D2DDBDD90007B8
:1010900005FF6865616420666F7200B4B7C5C4DE81
:1010A000C6D1B6B3000302FF62652068656164655E
:1010B0006420666F72206E00DDC6D1B6C2C3B2D99D
:1010C000000000FF706C617920626F7900B3BBB7DC
:1010D000DE000101FF64656420666F72206E00DD32
:1010E000C6D1B6C2C3B2D9000000FF0000000000A4
:1010F00000000000000000000000000000000000F0
:1011000000000000000000000000000000000000DF
:1011100000000000000000000000000000000000CF
:1011200000000000000000000000000000000000BF
:1011300000000000000000000000000000000000AF
:10114000000000000000000000000000000000009F
:10115000000000000000000000000000000000008F
:10116000000000000000000000000000000000007F
:10117000000000000000000000000000000000006F
:10118000000000000000000000000000000000005F
:10119000000000000000000000000000000000004F
:1011A000000000000000000000000000000000003F
:1011B000000000000000000000000000000000002F
:1011C000000000000000000000000000000000001F
:1011D000000000000000000000000000000000000F
:1011E00000000000000000000000000000000000FF
:1011F00000000000000000000000000000000000EF
:1012000000000000000000000000000000000000DE
:1012100000000000000000000000000000000000CE
:1012200000000000000000000000000000000000BE
:1012300000000000000000000000000000000000AE
:10124000000000000000000000000000000000009E
:10125000000000000000000000000000000000008E
:10126000000000000000000000000000000000007E
:10127000000000000000000000000000000000006E
:10128000000000000000000000000000000000005E
:10129000000000000000000000000000000000004E
:1012A000000000000000000000000000000000003E
:1012B000000000000000000000000000000000002E
:1012C000000000000000000000000000000000001E
:1012D000000000000000000000000000000000000E
:1012E00000000000000000000000000000000000FE
:1012F00000000000000000000000000000000000EE
:1013000000000000000000000000000000000000DD
:1013100000000000000000000000000000000000CD
:1013200000000000000000000000000000000000BD
:1013300000000000000000000000000000000000AD
:10134000000000000000000000000000000000009D
:10135000000000000000000000000000000000008D
:10136000000000000000000000000000000000007D
:10137000000000000000000000000000000000006D
:10138000000000000000000000000000000000005D
:10139000000000000000000000000000000000004D
:1013A000000000000000000000000000000000003D
:1013B000000000000000000000000000000000002D
:1013C000000000000000000000000000000000001D
:1013D000000000000000000000000000000000000D
:1013E00000000000000000000000000000000000FD
:1013F00000000000000000000000000000000000ED
:1014000000000000000000000000000000000000DC
:1014100000000000000000000000000000000000CC
:1014200000000000000000000000000000000000BC
:1014300000000000000000000000000000000000AC
:10144000000000000000000000000000000000009C
:10145000000000000000000000000000000000008C
:10146000000000000000000000000000000000007C
:10147000000000000000000000000000000000006C
:10148000000000000000000000000000000000005C
:10149000000000000000000000000000000000004C
:1014A000000000000000000000000000000000003C
:1014B000000000000000000000000000000000002C
:1014C000000000000000000000000000000000001C
:1014D000000000000000000000000000000000000C
:1014E00000000000000000000000000000000000FC
:1014F00000000000000000000000000000000000EC
:10150000FFCADE000100FF707574206F75742066DD
:1015100069726500CBA6B9BD000000FF00000000A5
:1015200000000000000000000000000000000000BB
:1015300000000000000000000000000000000000AB
:10154000000000000000000000000000000000009B
:10155000000000000000000000000000000000008B
:10156000000000000000000000000000000000007B
:10157000000000000000000000000000000000006B
:10158000000000000000000000000000000000005B
:10159000000000000000000000000000000000004B
:1015A000000000000000000000000000000000003B
:1015B000000000000000000000000000000000002B
:1015C000000000000000000000000000000000001B
:1015D000000000000000000000000000000000000B
:1015E00000000000000000000000000000000000FB
:1015F00000000000000000000000000000000000EB
:1016000000000000000000000000000000000000DA
:1016100000000000000000000000000000000000CA
:1016200000000000000000000000000000000000BA
:1016300000000000000000000000000000000000AA
:10164000000000000000000000000000000000009A
:10165000000000000000000000000000000000008A
:10166000000000000000000000000000000000007A
:10167000000000000000000000000000000000006A
:10168000000000000000000000000000000000005A
:10169000000000000000000000000000000000004A
:1016A000000000000000000000000000000000003A
:1016B000000000000000000000000000000000002A
:1016C000000000000000000000000000000000001A
:1016D000000000000000000000000000000000000A
:1016E00000000000000000000000000000000000FA
:1016F00000000000000000000000000000000000EA
:1017000000000000000000000000000000000000D9
:1017100000000000000000000000000000000000C9
:1017200000000000000000000000000000000000B9
:1017300000000000000000000000000000000000A9
:101740000000000000000000000000000000000099
:101750000000000000000000000000000000000089
:101760000000000000000000000000000000000079
:101770000000000000000000000000000000000069
:101780000000000000000000000000000000000059
:101790000000000000000000000000000000000049
:1017A0000000000000000000000000000000000039
:1017B0000000000000000000000000000000000029
:1017C0000000000000000000000000000000000019
:1017D0000000000000000000000000000000000009
:1017E00000000000000000000000000000000000F9
:1017F00000000000000000000000000000000000E9
:1018000000000000000000000000000000000000D8
:1018100000000000000000000000000000000000C8
:1018200000000000000000000000000000000000B8
:1018300000000000000000000000000000000000A8
:101840000000000000000000000000000000000098
:101850000000000000000000000000000000000088
:101860000000000000000000000000000000000078
:101870000000000000000000000000000000000068
:101880000000000000000000000000000000000058
:101890000000000000000000000000000000000048
:1018A0000000000000000000000000000000000038
:1018B0000000000000000000000000000000000028
:1018C0000000000000000000000000000000000018
:1018D0000000000000000000000000000000000008
:1018E00000000000000000000000000000000000F8
:1018F00000000000000000000000000000000000E8
:1019000000000000000000000000000000000000D7
:1019100000000000000000000000000000000000C7
:1019200000000000000000000000000000000000B7
:1019300000000000000000000000000000000000A7
:101940000000000000000000000000000000000097
:101950000000000000000000000000000000000087
:101960000000000000000000000000000000000077
:101970000000000000000000000000000000000067
:101980000000000000000000000000000000000057
:101990000000000000000000000000000000000047
:1019A0000000000000000000000000000000000037
:1019B0000000000000000000000000000000000027
:1019C0000000000000000000000000000000000017
:1019D0000000000000000000000000000000000007
:1019E00000000000000000000000000000000000F7
:1019F00000000000000000000000000000000000E7
:101A000000000000000000000000000000000000D6
:101A100000000000000000000000000000000000C6
:101A200000000000000000000000000000000000B6
:101A300000000000000000000000000000000000A6
:101A40000000000000000000000000000000000096
:101A50000000000000000000000000000000000086
:101A60000000000000000000000000000000000076
:101A70000000000000000000000000000000000066
:101A80000000000000000000000000000000000056
:101A90000000000000000000000000000000000046
:101AA0000000000000000000000000000000000036
:101AB0000000000000000000000000000000000026
:101AC0000000000000000000000000000000000016
:101AD0000000000000000000000000000000000006
:101AE00000000000000000000000000000000000F6
:101AF00000000000000000000000000000000000E6
:101B000000000000000000000000000000000000D5
:101B100000000000000000000000000000000000C5
:101B200000000000000000000000000000000000B5
:101B300000000000000000000000000000000000A5
:101B40000000000000000000000000000000000095
:101B50000000000000000000000000000000000085
:101B60000000000000000000000000000000000075
:101B70000000000000000000000000000000000065
:101B80000000000000000000000000000000000055
:101B90000000000000000000000000000000000045
:101BA0000000000000000000000000000000000035
:101BB0000000000000000000000000000000000025
:101BC0000000000000000000000000000000000015
:101BD0000000000000000000000000000000000005
:101BE00000000000000000000000000000000000F5
:101BF00000000000000000000000000000000000E5
:101C000000000000000000000000000000000000D4
:101C100000000000000000000000000000000000C4
:101C200000000000000000000000000000000000B4
:101C300000000000000000000000000000000000A4
:101C40000000000000000000000000000000000094
:101C50000000000000000000000000000000000084
:101C60000000000000000000000000000000000074
:101C70000000000000000000000000000000000064
:101C80000000000000000000000000000000000054
:101C90000000000000000000000000000000000044
:101CA0000000000000000000000000000000000034
:101CB0000000000000000000000000000000000024
:101CC0000000000000000000000000000000000014
:101CD0000000000000000000000000000000000004
:101CE00000000000000000000000000000000000F4
:101CF00000000000000000000000000000000000E4
:101D000000000000000000000000000000000000D3
:101D100000000000000000000000000000000000C3
:101D200000000000000000000000000000000000B3
:101D300000000000000000000000000000000000A3
:101D40000000000000000000000000000000000093
:101D50000000000000000000000000000000000083
:101D60000000000000000000000000000000000073
:101D70000000000000000000000000000000000063
:101D80000000000000000000000000000000000053
:101D90000000000000000000000000000000000043
:101DA0000000000000000000000000000000000033
:101DB0000000000000000000000000000000000023
:101DC0000000000000000000000000000000000013
:101DD0000000000000000000000000000000000003
:101DE00000000000000000000000000000000000F3
:101DF00000000000000000000000000000000000E3
:101E000000000000000000000000000000000000D2
:101E100000000000000000000000000000000000C2
:101E200000000000000000000000000000000000B2
:101E300000000000000000000000000000000000A2
:101E40000000000000000000000000000000000092
:101E50000000000000000000000000000000000082
:101E60000000000000000000000000000000000072
:101E70000000000000000000000000000000000062
:101E80000000000000000000000000000000000052
:101E90000000000000000000000000000000000042
:101EA0000000000000000000000000000000000032
:101EB0000000000000000000000000000000000022
:101EC0000000000000000000000000000000000012
:101ED0000000000000000000000000000000000002
:101EE00000000000000000000000000000000000F2
:101EF00000000000000000000000000000000000E2
:101F000000000000000000000000000000000000D1
:101F100000000000000000000000000000000000C1
:101F200000000000000000000000000000000000B1
:101F300000000000000000000000000000000000A1
:101F40000000000000000000000000000000000091
:101F50000000000000000000000000000000000081
:101F60000000000000000000000000000000000071
:101F70000000000000000000000000000000000061
:101F80000000000000000000000000000000000051
:101F90000000000000000000000000000000000041
:101FA0000000000000000000000000000000000031
:101FB0000000000000000000000000000000000021
:101FC0000000000000000000000000000000000011
:101FD0000000000000000000000000000000000001
:101FE00000000000000000000000000000000000F1
:101FF00000000000000000000000000000000000E1
:00000001FF
