:100CF7002800696E206F7468657220776F7264735D
:100D070020696F7700B2B2B6B4DACADE000F0DFF02
:100D17006D697374657200B7D8CCB7000A09FF70A4
:100D270075742075702077697468206E00BAC4C620
:100D3700CCCFDDA6B2DCBDDEB6DECFDDBDD9000D82
:100D47000CFF6361726520746F20646F00CBC3B2C0
:100D570020B7DED3DD20C4DEB3BCC0B2C4B5D3B385
:100D6700000603FF6265206F6C6420656E6F756710
:100D77006820746F20646F00C4DEB3BDD9C9C6BCD8
:100D8700DED5B3CCDEDDC5C8DDDAB2001311FF66F0
:100D9700616C6C20646F776E00C0B5DAD9000A0900
:100DA700FF776F6E64657200C5C620C0DEDBB3B621
:100DB700C4B5D3B300100DFF6D696E642061206464
:100DC7006F696E6700B420B6DEC4DEB3BDD9C9A6AD
:100DD700B2D4B6DED920CB20B7DE001512FF62658C
:100DE7006172206E20696E206D696E6400DDA6BA9F
:100DF700BADBC6C4D2C3B5B800100FFF6D616B650F
:100E0700207570206F6E652073206D696E6400C554
:100E1700C6BCD6B3C4B9C2BCDDBDD9000907FF6ED5
:100E270065766572206D696E6400C4DEDDCFB2C978
:100E3700C2D6B2CADEDD000F0FFF73686F7274652A
:100E47006E00D0BCDEB6B8BDD900130DFF626520B9
:100E570073686F7274206F66206E00DDB6DECCBFDC
:100E6700B8BCC3B2D9001310FF666F722073686FE6
:100E7700727400D8D4B8BCC300120EFF626520722A
:100E8700756E2073686F727400CCBFB8BDD9000946
:100E970009FF72756E2073686F7274206F66206E1B
:100EA70000DDB6DECCBFB8BDD9000B0AFF63757491
:100EB70020646F776E206F6E206E00DDC9D8D6B3C1
:100EC700A6CDD7BD000E0CFF63757420696E206F29
:100ED7006E206E00DDC9B6B2DCC6B8C1A6CABBD1EA
:100EE700001716FF7265737065637461626C650045
:100EF700CFC4D3C5001010FF776F756C64206C6981
:100F07006B65206E00DDB6DECEBCB200100DFF773C
:100F17006F756C64206C696B6520746F20646F005B
:100F2700C4DEB3BCC0B2000C0AFF686F7720776FCE
:100F3700756C6420796F75206C696B65206E00DDB8
:100F4700CAB2B6B6DEB6C500100CFF73696D706C19
:100F57006520737972757000B6DED1BCDBC2CCDF59
:100F6700000B09FF776F756C6400B7D6B6BBBED9A7
:100F770020CBB6B4D2C6000705FF63757420646F33
:100F8700776E206F6E206E00DDA6CDD7BD000908F5
:100F9700FF7265737065637420666F72206E00DD83
:100FA700BABADBC6C0B2BCC3C9CAB2D8D60009092F
:100FB700FF6974206973206861726420666F72200C
:100FC7006120746F206400B1B6DEDDBDD9C9CAD116
:100FD700BDDEB6BCB2000A06FF776F756C6400C051
:100FE700BDDEC8D9C4B7000807FF636F6E636572BB
:100FF7006E00B6DDBCDDBADEC420CBC4C9D3C2BC2B
:10100700DDCADFB2000908FF656E6F756768206E7D
:1010170020746F20646F00C4DEB3BDD9C9C6BCDEBF
:10102700D5B3CCDEDDC5DD000808FF72756E206123
:1010370077617900C6B9DED9000C0CFF72756E2096
:10104700696E746F206E00DD20C6C3DEB8DCBD207C
:10105700B8DEB3BEDEDDB1B3000A06FF706F7420E1
:101067007374756E6400C5CDDEBCB7000000FF70F9
:101077006F696E7400BCDED5B3D6B3C5C3DD00039C
:1010870002FF612068756D616E206265696E670099
:10109700C6DDB9DEDD000000FF74686520746F747B
:1010A700616C20706F70756C6174696F6E00BEDE65
:1010B700DDBCDEDDBAB3000000FF616E206176653E
:1010C7007261676520686F757365686F6C6400CDC2
:1010D700B2B7DDC3B7C5B6BFDEB8000000FF6120F9
:1010E700636F6D6D6F6E20616E636573746F7200F1
:1010F700B7D6B3C2B3C9BFBEDD000202FF6120721B
:101107006573706F6E7369626C65206164756C746A
:1011170000BEB7C6DDB6DDC9B1D9B5C4C50000008C
:10112700FF676F6C6420666973682073636F6F7005
:10113700696E6700B7DDB7DED6BDB8B2000000FF45
:10114700FF707574206F6666207468652066697223
:101157006500CBA6B9BD000504FF656E6F756768AE
:10116700206D6F6E657920746F2062757900B6B354
:10117700C9C6BCDED5B3CCDEDDC5B6C8000101FFEC
:101187006265206F6C6420656E6F75676820746F89
:1011970020646F00C4DEB3BDD9C9C6BCDED5B3CCED
:1011A700DEDDC5C4BC000505FF66616C6C20646F9D
:1011B700776E00C5C6B6C0B2DAD9000202FF66650F
:1011C7006C6C2066616C6C656E00B6BA20B6BACCE2
:1011D700DEDDBC000504FF6D697374657200B7D866
:1011E700CCB7000000FF696E206F746865722077C6
:1011F7006F72647320696F7700B2B2B6B4DACADE71
:10120700000101FFBDD9C9C6BCDED5B3CCDEDDC543
:10121700C4BC000101FFDED5B3CCDEDEB3BDD9C946
:10122700C6BCDED5B3CCDEDDC5C4BC000101FFDE24
:10123700D5B3CCDEDDC5C4BC000101FF67682074EF
:101247006F20646F00C4DEB3BDD9C9C6BCDED5B399
:10125700CCDEDDC5C4BC000101FF6E6F7567682079
:10126700746F20646F00C4DEB3BDD9C9C6BCDED5B8
:10127700B3CCDEDDC5C4BC000101FF00FF62652001
:101287006F6C6420656E6F75676820746F20646F7C
:1012970000C4DEB3BDD9C9C6BCDED5B3CCDEDDC55F
:1012A700C4BC000101FF20656E6F75676820746F0D
:1012B70020646F00C4DEB3BDD9C9C6BCDED5B3CCCC
:1012C700DEDDC5C4BC000101FF20746F20646F0020
:1012D700C4DEB3BDD9C9C6BCDED5B3CCDEDDC5C45B
:1012E700BC000101FF676820746F20646F00C4DED3
:1012F700B3BDD9C9C6BCDED5B3CCDEDDC5C4BC0021
:101307000101FFD9C9C6BCDED5B3CCDEDDC5C4BC7F
:10131700000101FF75676820746F20646F00C4DEE9
:10132700B3BDD9C9C6BCDED5B3CCDEDDC5C4BC00F0
:101337000101FF6820746F20646F00C4DEB3BDD95C
:10134700C9C6BCDED5B3CCDEDDC5C4BC000101FF18
:10135700C9C6BCDED5B3CCDEDDC5C4BC000101FF08
:1013670074206F7574206669726500CBA6B9BD00DD
:101377000000FFCADE000100FF707574206F7574EE
:10138700206669726500CBA6B9BD000000FF0001A9
:1013970000FF707574206F7574206669726500CBE5
:1013A700A6B9BD000000FFDE000100FF70757420C4
:1013B7006F7574206669726500CBA6B9BD00000021
:1013C700FF707574206F7574206669726500CBA60F
:1013D700B9BD000000FFDED0DACADE000100FF70F1
:1013E7007574206F7574206669726500CBA6B9BDE8
:1013F700000000FFDE000100FF707574206F757438
:10140700206669726500CBA6B9BD000000FFD0DA7F
:10141700CADE000100FF707574206F75742066695D
:10142700726500CBA6B9BD000000FF6F757420661A
:1014370069726500CBA6B9BD000000FFDE000100A0
:10144700FF707574206F7574206669726500CBA68E
:10145700B9BD000000FF000100FF707574206F75B3
:1014670074206669726500CBA6B9BD000000FF0055
:10147700FF707574206F7574206669726500CBA65E
:10148700B9BD000000FF7574206F7574206669721E
:101497006500CBA6B9BD000000FFFF707574206F13
:1014A7007574206669726500CBA6B9BD000000FFA0
:1014B700CADE000100FF707574206F7574206669BD
:1014C700726500CBA6B9BD000000FF00FF70757400
:1014D700206F7574206669726500CBA6B9BD0000E0
:1014E70000FF0100FF707574206F757420666972C4
:1014F7006500CBA6B9BD000000FFCADE000100FFF2
:10150700707574206F7574206669726500CBA6B913
:10151700BD000000FF000000000000000000000008
:1015270000000000000000000000000000000000B4
:1015370000000000000000000000000000000000A4
:101547000000000000000000000000000000000094
:101557000000000000000000000000000000000084
:101567000000000000000000000000000000000074
:101577000000000000000000000000000000000064
:101587000000000000000000000000000000000054
:101597000000000000000000000000000000000044
:1015A7000000000000000000000000000000000034
:1015B7000000000000000000000000000000000024
:1015C7000000000000000000000000000000000014
:1015D7000000000000000000000000000000000004
:1015E70000000000000000000000000000000000F4
:1015F70000000000000000000000000000000000E4
:1016070000000000000000000000000000000000D3
:1016170000000000000000000000000000000000C3
:1016270000000000000000000000000000000000B3
:1016370000000000000000000000000000000000A3
:101647000000000000000000000000000000000093
:101657000000000000000000000000000000000083
:101667000000000000000000000000000000000073
:101677000000000000000000000000000000000063
:101687000000000000000000000000000000000053
:101697000000000000000000000000000000000043
:1016A7000000000000000000000000000000000033
:1016B7000000000000000000000000000000000023
:1016C7000000000000000000000000000000000013
:1016D7000000000000000000000000000000000003
:1016E70000000000000000000000000000000000F3
:1016F70000000000000000000000000000000000E3
:1017070000000000000000000000000000000000D2
:1017170000000000000000000000000000000000C2
:1017270000000000000000000000000000000000B2
:1017370000000000000000000000000000000000A2
:101747000000000000000000000000000000000092
:101757000000000000000000000000000000000082
:101767000000000000000000000000000000000072
:101777000000000000000000000000000000000062
:101787000000000000000000000000000000000052
:101797000000000000000000000000000000000042
:1017A7000000000000000000000000000000000032
:1017B7000000000000000000000000000000000022
:1017C7000000000000000000000000000000000012
:1017D7000000000000000000000000000000000002
:1017E70000000000000000000000000000000000F2
:1017F70000000000000000000000000000000000E2
:1018070000000000000000000000000000000000D1
:1018170000000000000000000000000000000000C1
:1018270000000000000000000000000000000000B1
:1018370000000000000000000000000000000000A1
:101847000000000000000000000000000000000091
:101857000000000000000000000000000000000081
:101867000000000000000000000000000000000071
:101877000000000000000000000000000000000061
:101887000000000000000000000000000000000051
:101897000000000000000000000000000000000041
:1018A7000000000000000000000000000000000031
:1018B7000000000000000000000000000000000021
:1018C7000000000000000000000000000000000011
:1018D7000000000000000000000000000000000001
:1018E70000000000000000000000000000000000F1
:1018F70000000000000000000000000000000000E1
:1019070000000000000000000000000000000000D0
:1019170000000000000000000000000000000000C0
:1019270000000000000000000000000000000000B0
:1019370000000000000000000000000000000000A0
:101947000000000000000000000000000000000090
:101957000000000000000000000000000000000080
:101967000000000000000000000000000000000070
:101977000000000000000000000000000000000060
:101987000000000000000000000000000000000050
:101997000000000000000000000000000000000040
:1019A7000000000000000000000000000000000030
:1019B7000000000000000000000000000000000020
:1019C7000000000000000000000000000000000010
:1019D7000000000000000000000000000000000000
:1019E70000000000000000000000000000000000F0
:1019F70000000000000000000000000000000000E0
:101A070000000000000000000000000000000000CF
:101A170000000000000000000000000000000000BF
:101A270000000000000000000000000000000000AF
:101A3700000000000000000000000000000000009F
:101A4700000000000000000000000000000000008F
:101A5700000000000000000000000000000000007F
:101A6700000000000000000000000000000000006F
:101A7700000000000000000000000000000000005F
:101A8700000000000000000000000000000000004F
:101A9700000000000000000000000000000000003F
:101AA700000000000000000000000000000000002F
:101AB700000000000000000000000000000000001F
:101AC700000000000000000000000000000000000F
:101AD70000000000000000000000000000000000FF
:101AE70000000000000000000000000000000000EF
:101AF70000000000000000000000000000000000DF
:101B070000000000000000000000000000000000CE
:101B170000000000000000000000000000000000BE
:101B270000000000000000000000000000000000AE
:101B3700000000000000000000000000000000009E
:101B4700000000000000000000000000000000008E
:101B5700000000000000000000000000000000007E
:101B6700000000000000000000000000000000006E
:101B7700000000000000000000000000000000005E
:101B8700000000000000000000000000000000004E
:101B9700000000000000000000000000000000003E
:101BA700000000000000000000000000000000002E
:101BB700000000000000000000000000000000001E
:101BC700000000000000000000000000000000000E
:101BD70000000000000000000000000000000000FE
:101BE70000000000000000000000000000000000EE
:101BF70000000000000000000000000000000000DE
:101C070000000000000000000000000000000000CD
:101C170000000000000000000000000000000000BD
:101C270000000000000000000000000000000000AD
:101C3700000000000000000000000000000000009D
:101C4700000000000000000000000000000000008D
:101C5700000000000000000000000000000000007D
:101C6700000000000000000000000000000000006D
:101C7700000000000000000000000000000000005D
:101C8700000000000000000000000000000000004D
:101C9700000000000000000000000000000000003D
:101CA700000000000000000000000000000000002D
:101CB700000000000000000000000000000000001D
:101CC700000000000000000000000000000000000D
:101CD70000000000000000000000000000000000FD
:101CE70000000000000000000000000000000000ED
:101CF70000000000000000000000000000000000DD
:101D070000000000000000000000000000000000CC
:101D170000000000000000000000000000000000BC
:101D270000000000000000000000000000000000AC
:101D3700000000000000000000000000000000009C
:101D4700000000000000000000000000000000008C
:101D5700000000000000000000000000000000007C
:101D6700000000000000000000000000000000006C
:101D7700000000000000000000000000000000005C
:101D8700000000000000000000000000000000004C
:101D9700000000000000000000000000000000003C
:101DA700000000000000000000000000000000002C
:101DB700000000000000000000000000000000001C
:101DC700000000000000000000000000000000000C
:101DD70000000000000000000000000000000000FC
:101DE70000000000000000000000000000000000EC
:101DF70000000000000000000000000000000000DC
:101E070000000000000000000000000000000000CB
:101E170000000000000000000000000000000000BB
:101E270000000000000000000000000000000000AB
:101E3700000000000000000000000000000000009B
:101E4700000000000000000000000000000000008B
:101E5700000000000000000000000000000000007B
:101E6700000000000000000000000000000000006B
:101E7700000000000000000000000000000000005B
:101E8700000000000000000000000000000000004B
:101E9700000000000000000000000000000000003B
:101EA700000000000000000000000000000000002B
:101EB700000000000000000000000000000000001B
:101EC700000000000000000000000000000000000B
:101ED70000000000000000000000000000000000FB
:101EE70000000000000000000000000000000000EB
:101EF70000000000000000000000000000000000DB
:101F070000000000000000000000000000000000CA
:101F170000000000000000000000000000000000BA
:101F270000000000000000000000000000000000AA
:101F3700000000000000000000000000000000009A
:101F4700000000000000000000000000000000008A
:101F5700000000000000000000000000000000007A
:101F6700000000000000000000000000000000006A
:101F7700000000000000000000000000000000005A
:101F8700000000000000000000000000000000004A
:101F9700000000000000000000000000000000003A
:101FA700000000000000000000000000000000002A
:101FB700000000000000000000000000000000001A
:101FC700000000000000000000000000000000000A
:101FD70000000000000000000000000000000000FA
:101FE70000000000000000000000000000000000EA
:091FF700000000000000000000E1
:00000001FF
